{
    "How to buy": "Como comprar",
    "Download Whitepaper": "Descargar documento técnico",
    "Currently we are facing some technical issue, please try again after sometime.": "Actualmente nos enfrentamos a un problema técnico, intente nuevamente después de algún tiempo.",
    "Token Balance": "Saldo de Tokens",
    "Your Contribution in": "Tu Contribución en",
    "Equivalent to": "Equivalente a",
    "Token Name": "Nombre de token",
    "Token Symbol": "símbolo de Token",
    "Buy Token Now": "Comprar token(s) ahora",
    "Add your wallet address before buy": "Agregue la dirección de su billetera antes de comprar",
    "Your Account Status": "Estado de su cuenta",
    "Resend Email": "Reenviar email",
    "Email Verified": "Correo verificado",
    "KYC Approved": "KYC aprobado",
    "KYC Pending": "KYC pendiente",
    "Submit KYC": "Enviar KYC",
    "Receiving Wallet": "Billetera receptora",
    "New address under review for approve.": "Nueva dirección en revisión para aprobación.",
    "Add Your Wallet Address": "Agregue su dirección de billetera",
    "Edit": "Editar",
    "Add": "Agregar",
    "Identity Verification - KYC": "Verificación de identidad - KYC",
    "To comply with regulation, participant will have to go through identity verification.": "Para cumplir con la regulación, el participante deberá pasar por la verificación de identidad.",
    "You have not submitted your documents to verify your identity (KYC).": "No ha enviado sus documentos para verificar su identidad (KYC).",
    "Click to Proceed": "Haga clic para continuar",
    "We have received your document.": "Hemos recibido su documento.",
    "We will review your information and if all is in order will approve your identity. You will be notified by email once we verified your identity (KYC).": "Revisaremos su información y, si todo está en orden, aprobaremos su identidad. Se le notificará por correo electrónico una vez que verifiquemos su identidad (KYC).",
    "KYC Application has been rejected!": "¡La solicitud KYC ha sido rechazada!",
    "We were having difficulties verifying your identity. In our verification process, we found information are incorrect or missing. Please re-submit the application again and verify your identity.": "Tuvimos dificultades para verificar su identidad. En nuestro proceso de verificación, encontramos información incorrecta o faltante. Vuelva a enviar la solicitud nuevamente y verifique su identidad.",
    "Resubmit": "Reenviar",
    "View KYC": "Ver KYC",
    "Identity (KYC) has been verified.": "Se ha verificado la identidad (KYC).",
    "One for our team verified your identity. You are eligible to participate in our token sale.": "Uno para nuestro equipo verificó su identidad. Usted es elegible para participar en nuestra venta de tokens.",
    "Purchase Token": "Token de compra",
    "KYC verification required for purchase token": "Se requiere verificación KYC para el token de compra",
    "Logout": "Cerrar sesión",
    "Withdraw": "Retirar",
    "My Profile": "Mi perfil",
    "Activity": "Actividad",
    "Contact our support team via email": "Póngase en contacto con nuestro equipo de soporte por correo electrónico",
    "Token Sales Progress": "Progreso de las ventas de Tokens",
    "Raised Amount": "Cantidad recaudada",
    "Total Token": "Token total",
    "Hard Cap": "tapa dura",
    "Soft Cap": "Tapa blanda",
    "Sales End in": "Las ventas terminan en",
    "Sales Start in": "Las ventas comienzan en",
    "Our token sales has been finished. Thank you very much for your contribution.": "Nuestras ventas de tokens han terminado. Muchas gracias por su contribución.",
    "More": "Más",
    "Earn with Referral": "Gane con referencia",
    "Invite your friends & family.": "Invita a tus amigos y familiares.",
    "Dear :fullname, congrats!": "Estimado :fullname, ¡felicidades!",
    "Until now, you have earned": "Hasta ahora, te has ganado",
    "To unlock :level stage invite :number more friends": "Para desbloquear :level escenario invita a :number amigos más",
    "To unlock other benefits and earn more :currency, share your Referral Link with others:": "Para desbloquear otros beneficios y ganar más :currency, comparta su enlace de referencia con otros:",
    "Welcome!": "¡Bienvenido!",
    "You provided a invalid 2FA authentication code!": "¡Proporcionó un código de autenticación 2FA no válido!",
    "Please enter a valid authentication code!": "¡Por favor ingrese un código de autenticación válido!",
    "Envato Username is required for activation.": "Se requiere el nombre de usuario de Envato para la activación.",
    "Your Email address is required for activation.": "Se requiere su dirección de correo electrónico para la activación.",
    "Please enter a valid email address.": "Por favor, introduce una dirección de correo electrónico válida.",
    "Envato Purchase Code is required for activation.": "Se requiere el código de compra de Envato para la activación.",
    "Please enter a valid purchase code.": "Introduce un código de compra válido.",
    "Unable to proceed request!": "¡No se puede continuar con la solicitud!",
    "Allow only :num digit after decimal point in :label. Recommended to use up-to 6 digit after decimal point.": "Permitir solo :num dígito después del punto decimal en :label. Se recomienda usar hasta 6 dígitos después del punto decimal.",
    "Base Price": "Precio base",
    "Sorry! unable to find translate data for the language.": "¡Lo siento! incapaz de encontrar datos de traducción para el idioma.",
    "The language name should be unique and indentical.": "El nombre del idioma debe ser único e idéntico.",
    "The language code name should be unique.": "El nombre del código de idioma debe ser único.",
    ":name language added successfully.": "Idioma :name añadido con éxito.",
    "Sorry! unable to find the language.": "¡Lo siento! incapaz de encontrar el idioma.",
    "Sorry! unable find the language.": "¡Lo siento! incapaz de encontrar el idioma.",
    "Sorry! unable to update translated text.": "¡Lo siento! no se puede actualizar el texto traducido.",
    "Failed to generate the language file.": "No se pudo generar el archivo de idioma.",
    "The language and related translation has been deleted from application.": "El idioma y la traducción relacionada se han eliminado de la aplicación.",
    "Refund Successful!": "¡Reembolso exitoso!",
    "Already Refunded!": "¡Ya reembolsado!",
    "Unable to cancel the transaction, reload the page.": "No se puede cancelar la transacción, vuelve a cargar la página.",
    "Unable to approve the transaction, reload the page.": "No se puede aprobar la transacción, vuelva a cargar la página.",
    "Unable to delete the transaction, reload the page.": "No se puede eliminar la transacción, vuelva a cargar la página.",
    "Cancel the transaction first.": "Cancele la transacción primero.",
    "The transaction already updated or cancelled. Please reload the page and check again.": "La transacción ya se actualizó o canceló. Vuelva a cargar la página y compruebe de nuevo.",
    "Transaction status updated successfully.": "Estado de la transacción actualizado con éxito.",
    "Payment has not approved yet for this transaction. You may cancel this transaction.": "El pago aún no se ha aprobado para esta transacción. Puede cancelar esta transacción.",
    "Select a user first!": "¡Seleccione un usuario primero!",
    "You do not have enough permissions to perform requested operation.": "No tiene suficientes permisos para realizar la operación solicitada.",
    "There has not any unvarified users!": "¡No hay ningún usuario sin verificar!",
    "Sorry, Something is wrong, please login via your email & password!": "Lo sentimos, algo anda mal, ¡inicia sesión con tu correo electrónico y contraseña!",
    "Sorry, Something is wrong, please login via your email & password!!": "Lo sentimos, algo anda mal, ¡inicia sesión con tu correo electrónico y contraseña!",
    "National ID Card Back-Side": "Parte posterior de la tarjeta de identificación nacional",
    "Document on Hand": "Documento a mano",
    "Invalid document, only JPEG, PNG and PDF files are allowed.": "Documento no válido, solo se permiten archivos JPEG, PNG y PDF.",
    "Unknown Error": "Error desconocido",
    "Remove Failed": "Eliminación fallida",
    "File Removed": "Archivo eliminado",
    "Maximum amount reached, You can purchase maximum :amount :symbol per transaction.": "Cantidad máxima alcanzada, puede comprar máximo :amount :symbol por transacción.",
    "You must purchase minimum :amount :symbol.": "Debes comprar mínimo :amount :symbol.",
    "Our sales has been finished. Thank you very much for your interest.": "Nuestras ventas han terminado. Muchas gracias por tu interes.",
    ":amount :symbol Token is not available.": "El token :amount :symbol no está disponible.",
    "Available :amount :symbol only, You can purchase less than :amount :symbol Token.": "Disponible solo :amount :symbol, puede comprar menos de :amount :symbol Token.",
    "Sorry, we're unable to proceed the transaction. This transaction may deleted. Please contact with administrator.": "Lo sentimos, no podemos continuar con la transacción. Esta transacción puede eliminarse. Póngase en contacto con el administrador.",
    "Your transaction is already :status. Sorry, we're unable to proceed the transaction.": "Su transacción ya es :status. Lo sentimos, no podemos continuar con la transacción.",
    "Your transaction is already :status. Please check your account balance.": "Su transacción ya es :status. Por favor, compruebe el saldo de su cuenta.",
    "Transaction is not found!!": "¡La transacción no se encuentra!",
    "Transaction id or key is not valid!": "¡El id o la clave de la transacción no es válido!",
    "You have provide a invalid 2FA authentication code!": "¡Ha proporcionado un código de autenticación 2FA no válido!",
    "Passport": "Pasaporte",
    "National ID Card": "Tarjeta de identificación nacional",
    "Driver’s License": "Licencia de conducir",
    "Address should be ERC20-compliant.": "La dirección debe cumplir con ERC20.",
    "Unable to assign admin level.": "No se puede asignar el nivel de administrador.",
    "Update": "Actualizar",
    "Enter number of token you would like to send.": "Ingrese el número de token que le gustaría enviar.",
    "Please enter minimum number of token.": "Ingrese el número mínimo de token.",
    "Your request successfully submitted and waiting for our team approval.": "Su solicitud se envió con éxito y espera la aprobación de nuestro equipo.",
    "Something is wrong, please try again later!": "¡Algo está mal, inténtalo de nuevo más tarde!",
    "You balance is insufficient for send token.": "Su saldo es insuficiente para enviar el token.",
    "You can not send your token to your own account.": "No puede enviar su token a su propia cuenta.",
    "Sorry! your provided email address is invalid or not associated with our platform.": "¡Lo siento! su dirección de correo electrónico proporcionada no es válida o no está asociada con nuestra plataforma.",
    "You can send maximum :amount :symbol at once.": "Puede enviar máximo :amount :symbol a la vez.",
    "Minimum :amount :symbol required to send.": "Mínimo :amount :symbol requerido para enviar.",
    "Invalid transaction or not found!": "¡Transacción no válida o no encontrada!",
    "Transaction approved successfully.": "Transacción aprobada con éxito.",
    "The receiver account not found.": "No se encontró la cuenta del destinatario.",
    "Transaction has been rejected.": "La transacción ha sido rechazada.",
    "Transaction already :status.": "Transacción ya :status.",
    "Send Token to Your Friend": "Enviar Token a su amigo",
    "You can invite your friend to join our platform and also you can send your token to your friend using his email address.": "Puede invitar a su amigo a unirse a nuestra plataforma y también puede enviar su token a su amigo usando su dirección de correo electrónico.",
    "See Transactions": "Ver Transacciones",
    "Available Token Balance:": "Saldo de Tokens disponible:",
    "Enter receiver email": "Ingrese el correo electrónico del destinatario",
    "Enter a valid email address, which is associated with our platform.": "Ingrese una dirección de correo electrónico válida, que esté asociada con nuestra plataforma.",
    "Enter token number": "Ingrese el número de token",
    "Proceed": "Proceder",
    "You do not have enough token to send.": "No tienes suficiente token para enviar.",
    "You can not send token right now.": "No puede enviar token en este momento.",
    "Something is wrong!": "¡Algo está mal!",
    "Withdrawal": "Retiro",
    "Approved": "Aprobado",
    "Pending": "Pendiente",
    "Progress": "Progreso",
    "Rejected": "Rechazado",
    "Withdraw Wallet": "Retirar billetera",
    "Reference Hash": "Hash de referencia",
    "Withdraw Details": "Retirar Detalles",
    "Request By": "Una petición de",
    "Request At": "Solicitud en",
    "Tokens": "Tokens",
    "Amount": "Monto",
    "Details": "Detalles",
    "Notes": "notas",
    "We have received your withdraw request and our team will proceed shortly. We will send you an email once we have completed your withdraw.": "Hemos recibido su solicitud de retiro y nuestro equipo procederá en breve. Le enviaremos un correo electrónico una vez que hayamos completado su retiro.",
    "Withdraw transaction has been :status at :time.": "La transacción de retiro ha sido :status en :time.",
    "You have canceled the withdraw request.": "Ha cancelado la solicitud de retiro.",
    "Withdraw Token": "Retirar token",
    "Withdraw Amount (:TOKEN)": "Monto de retiro (:Token)",
    "Minimum Withdraw:": "Retiro mínimo:",
    "Choose Coin": "Elija moneda",
    "Withdraw will be on same.": "El retiro será en el mismo.",
    "Wallet Address for Receiving": "Dirección de billetera para recibir",
    "Your wallet address": "Tu dirección de billetera",
    "Provide a valid wallet address for withdraw your token.": "Proporcione una dirección de billetera válida para retirar su token.",
    "Your will Get:": "Su testamento obtendrá:",
    "You do not have enough token to withdraw.": "No tienes suficiente token para retirar.",
    "You can not withdraw right now.": "No puedes retirar en este momento.",
    "Withdraw History": "Retirar historial",
    "Withdraw ID": "retirar identificación",
    "Wallet Address": "Dirección de la billetera",
    "Information": "Información",
    "Withdraw transaction has been approved successfully.": "La transacción de retiro ha sido aprobada con éxito.",
    "Withdraw transaction has been rejected.": "La transacción de retiro ha sido rechazada.",
    "Withdraw transaction has been deleted.": "La transacción de retiro ha sido eliminada.",
    "Withdraw transaction has been already approved.": "La transacción de retiro ya ha sido aprobada.",
    "Withdraw transaction has been canceled.": "La transacción de retiro ha sido cancelada.",
    "Unable delete the withdraw transaction.": "No se puede eliminar la transacción de retiro.",
    "Enter your wallet address for withdraw.": "Ingrese la dirección de su billetera para retirar.",
    "Your withdrawal has been successfully placed. You can see its progress on this withdrawal page.": "Su retiro se ha realizado con éxito. Puede ver su progreso en esta página de retiro.",
    "Something is wrong! Unable to process your request.": "¡Algo está mal! No se pudo procesar su solicitud.",
    "You balance is insufficient for a withdrawal.": "Su saldo es insuficiente para un retiro.",
    "You can withdraw maximum :amount :symbol at once.": "Puede retirar máximo :amount :symbol a la vez.",
    "Minimum :amount :symbol required to withdraw.": "Mínimo :amount :symbol requerido para retirar.",
    "Withdraw Your Token": "Retira tu Token",
    "You can withdraw your token any time, we will processed withing 24 hours after your withdraw request.": "Puede retirar su token en cualquier momento, lo procesaremos dentro de las 24 horas posteriores a su solicitud de retiro.",
    "See Withdraw History": "Ver historial de retiros",
    "Select your payment method.": "Selecciona tu forma de pago.",
    "Sorry, unable to proceed. Your payment amount is very low.": "Lo siento, no se puede continuar. El monto de su pago es muy bajo.",
    "Confirmation Your Payment": "Confirmación de su pago",
    "Your Order no. :orderid has been placed successfully.": "Tu pedido no. :orderid se ha colocado con éxito.",
    "Please make your payment of :amount :currency through bank to the below bank address. The token balance will appear in your account only after your transaction gets approved by our team.": "Realice su pago de :amount :currency a través del banco a la siguiente dirección bancaria. El saldo del token aparecerá en su cuenta solo después de que nuestro equipo apruebe su transacción.",
    "Bank Details for Payment": "Datos bancarios para el pago",
    "Account Name": "Nombre de la cuenta",
    "Account Number": "Número de cuenta",
    "Account Holder Address": "Dirección del titular de la cuenta",
    "Bank Name": "Nombre del banco",
    "Bank Address": "Dirección del banco",
    "Routing Number": "Número de ruta",
    "IBAN": "IBAN",
    "View Transaction": "Ver transacción",
    "Cancel Order": "Cancelar orden",
    "Use this transaction id (#:orderid) as reference. Make your payment within 24 hours, If we will not received your payment within 24 hours, then we will cancel the transaction.": "Utilice este ID de transacción (#:orderid) como referencia. Realice su pago dentro de las 24 horas. Si no recibimos su pago dentro de las 24 horas, cancelaremos la transacción.",
    "Your Order no. :orderid has been placed & waiting for payment.": "Tu pedido no. :orderid ha sido colocado y esperando el pago.",
    "To receiving :token :symbol token, please make your payment of :amount :currency through bank to the below bank address. The token balance will appear in your account only after your transaction gets approved by our team.": "Para recibir el token :token :symbol, realice su pago de :amount :currency a través del banco a la siguiente dirección bancaria. El saldo del token aparecerá en su cuenta solo después de que nuestro equipo apruebe su transacción.",
    "Oops!!!": "¡¡¡Ups!!!",
    "Sorry, seems there is an issues occurred and we couldn’t process your request. Please contact us with your order no. :orderid, if you continue to having the issues.": "Lo sentimos, parece que hubo un problema y no pudimos procesar su solicitud. Por favor contáctenos con su orden no. :orderid, si continúa teniendo problemas.",
    "Close": "Cerrar",
    "Please send :amount :currency to the address below. The token balance will appear in your account only after transaction gets :num confirmation and approved by our team.": "Envíe :amount :currency a la siguiente dirección. El saldo del token aparecerá en su cuenta solo después de que la transacción obtenga la confirmación :num y sea aprobada por nuestro equipo.",
    "Payment to the following :Name Wallet Address": "Pago a la siguiente dirección de billetera :Name",
    "Scan QR code to payment.": "Escanea el código QR para realizar el pago.",
    "Send Amount:": "Cantidad de envío:",
    "SET GAS LIMIT:": "ESTABLECER LÍMITE DE GAS:",
    "SET GAS PRICE:": "ESTABLECER PRECIO DE LA GASOLINA:",
    "Gwei": "Gwei",
    "To speed up verification process please enter your wallet address from where you'll transferring your amount to our address.": "Para acelerar el proceso de verificación, ingrese la dirección de su billetera desde donde transferirá su monto a nuestra dirección.",
    "Insert your payment address": "Inserta tu dirección de pago",
    "Confirm Payment": "Confirmar pago",
    "I'll provide wallet address later": "Proporcionaré la dirección de la billetera más tarde",
    "Do not make payment through exchange (Kraken, Bitfinex). You can use MyEtherWallet, MetaMask, Mist wallets etc.": "No realice pagos a través de intercambio (Kraken, Bitfinex). Puede usar carteras MyEtherWallet, MetaMask, Mist, etc.",
    "In case you send a different amount, number of :SYMBOL token will update accordingly.": "En caso de que envíe una cantidad diferente, el número de tokens :SYMBOL se actualizará en consecuencia.",
    "To receiving :token :symbol token, please send :amount :currency to the address below. The token balance will appear in your account only after transaction gets :num confirmation and approved by our team.": "Para recibir el token :token :symbol, envíe :amount :currency a la siguiente dirección. El saldo del token aparecerá en su cuenta solo después de que la transacción obtenga una confirmación :num y sea aprobada por nuestro equipo.",
    "Scan QR code to Payment.": "Escanea el código QR para realizar el pago.",
    "Unable to send email notification.": "No se puede enviar la notificación por correo electrónico.",
    "The email has been sent successfully.": "El correo electrónico ha sido enviado con éxito.",
    "To receiving :token :symbol token, please make your payment of :amount :currency through :gateway. The token balance will appear in your account once we received your payment.": "Para recibir el token :token :symbol, realice su pago de :amount :currency a :gateway. El saldo del token aparecerá en su cuenta una vez que recibamos su pago.",
    "Make Payment": "Hacer el pago",
    "Payment Process": "Proceso de pago",
    "Please make payment of :amount to receive :token_amount token including bonus :token_bonus token.": "Realice el pago de :amount para recibir el token :token_amount, incluido el token de bonificación :token_bonus.",
    "Please make payment of :amount to receive :token_amount token.": "Realice el pago de :amount para recibir el token :token_amount.",
    "You can choose any of following payment method to make your payment. The token balance will appear in your account after successful payment.": "Puede elegir cualquiera de los siguientes métodos de pago para realizar su pago. El saldo del token aparecerá en su cuenta después del pago exitoso.",
    "Select payment method:": "Seleccione el método de pago:",
    "Payment gateway may charge you a processing fees.": "La pasarela de pago puede cobrarle tarifas de procesamiento.",
    "You should accept our terms and policy.": "Debes aceptar nuestros términos y política.",
    "I hereby agree to the token purchase agreement and token sale term.": "Por la presente acepto el acuerdo de compra de tokens y el término de venta de tokens.",
    "Our payment address will appear or redirect you for payment after the order is placed.": "Nuestra dirección de pago aparecerá o lo redirigirá para el pago después de realizar el pedido.",
    "Sorry! There is no payment method available for this currency. Please choose another currency or contact our support team.": "¡Lo siento! No hay ningún método de pago disponible para esta moneda. Elija otra moneda o comuníquese con nuestro equipo de soporte.",
    ":lang Translation": "Traducción :lang",
    ":page Translation": "Traducción :page",
    "Instruction for Translation": "Instrucciones para la traducción",
    "Default Text": "Texto predeterminado",
    ":lang Text": "Texto :lang",
    "Language Settings": "Opciones de lenguaje",
    "Add New Language": "Agregar nuevo idioma",
    "Add Language": "Agregar idioma",
    "Profile Details": "detalles del perfil",
    "Two-Factor Verification": "Verificación de dos factores",
    "2FA Authentication": "Autenticación 2FA",
    "Hello": "Hola",
    "Enter the verification code generated by your mobile application (Google Authenticator).": "Introduce el código de verificación generado por tu aplicación móvil (Google Authenticator).",
    "Required.": "Requerido.",
    "Maximum :num chars.": "Máximo :num caracteres.",
    "Enter your authentication code": "Ingrese su código de autenticación",
    "Sign in": "Registrarse",
    "If you lost your phone or Uninstall the Google Authenticator app and enable to access your account please contact with us.": "Si perdió su teléfono o desinstaló la aplicación Google Authenticator y habilita el acceso a su cuenta, comuníquese con nosotros.",
    "Sign-in": "Iniciar sesión",
    "with your": "con tu",
    "Account": "Cuenta",
    "Your Email": "Tu correo electrónico",
    "Password": "Clave",
    "At least :num chars.": "Al menos :num caracteres.",
    "Remember Me": "Recuérdame",
    "Forgot password?": "¿Se te olvidó tu contraseña?",
    "Sign In": "Iniciar sesión",
    "Or Sign in with": "O inicia sesión con",
    "Facebook": "Facebook",
    "Google": "Google",
    "Don’t have an account?": "¿No tienes una cuenta?",
    "Sign up here": "Registrate aquí",
    "Welcome": "Bienvenido",
    "Reset password": "Restablecer la contraseña",
    "If you forgot your password, well, then we'll email you instructions to reset your password.": "Si olvidó su contraseña, le enviaremos un correo electrónico con instrucciones para restablecer su contraseña.",
    "Your Email Address": "Su dirección de correo electrónico",
    "Send Reset Link": "Enviar enlace de reinicio",
    "Return to login": "Volver a iniciar sesión",
    "Change Password": "Cambia la contraseña",
    "New Password": "Nueva contraseña",
    "Again Password": "Contraseña de nuevo",
    "Reset Password": "Restablecer la contraseña",
    "Sign up": "Regístrate",
    "Create New": "Crear nuevo",
    "Your Name": "Su nombre",
    "Enter valid email.": "Ingrese un email valido.",
    "Repeat Password": "Repite la contraseña",
    "Enter the same value.": "Introduzca el mismo valor.",
    "Your were invited by :userid": "Fuiste invitado por :userid",
    "I agree to the": "Estoy de acuerdo con la",
    "and": "y",
    "By registering you agree to the terms and conditions.": "Al registrarte aceptas los términos y condiciones.",
    "Complete Installation": "Instalación completa",
    "Create Account": "Crear una cuenta",
    "Or Sign up with": "O regístrate con",
    "Already have an account ?": "Ya tienes una cuenta ?",
    "Sign in instead": "Iniciar sesión en su lugar",
    "Reset 2FA Authentication": "Restablecer autenticación 2FA",
    "Reset 2FA": "Restablecer 2FA",
    "Please enter your account password to reset 2FA authentication.": "Ingrese la contraseña de su cuenta para restablecer la autenticación 2FA.",
    "Enter Password": "Introducir la contraseña",
    "Cancel Signup": "Cancelar registro",
    "A fresh verification link has been sent to your email address.": "Se ha enviado un nuevo enlace de verificación a su dirección de correo electrónico.",
    "Please verify your email address.": "Por favor verifique su dirección de correo electrónico.",
    "Before proceeding, please check your email for a verification link.": "Antes de continuar, verifique su correo electrónico para obtener un enlace de verificación.",
    "If you did not receive the email, click the button to resend.": "Si no recibiste el correo electrónico, haz clic en el botón para reenviar.",
    "Sign Out": "Desconectar",
    "Personal Details": "Detalles personales",
    "Your basic personal information is required for identification purposes.": "Su información personal básica es necesaria para fines de identificación.",
    "Please type carefully and fill out the form with your personal details. You are not allowed to edit the details once you have submitted the application.": "Escriba cuidadosamente y complete el formulario con sus datos personales. No se le permite editar los detalles una vez que haya enviado la solicitud.",
    "First Name": "Primer nombre",
    "Last Name": "Apellido",
    "Email Address": "Dirección de correo electrónico",
    "Phone Number ": "Número de teléfono",
    "Date of Birth": "Fecha de cumpleaños",
    "Gender": "Género",
    "Select Gender": "Seleccione género",
    "Male": "Masculino",
    "Female": "Femenino",
    "Other": "Otro",
    "Telegram Username": "Nombre de usuario de Telegram",
    "Your Address": "Su dirección",
    "Country": "País",
    "Select Country": "Seleccionar país",
    "State": "Estado",
    "City": "Ciudad",
    "Address Line 1": "Dirección Línea 1",
    "Address Line 2": "Línea de dirección 2",
    "Document Upload": "Carga de documentos",
    "To verify your identity, we ask you to upload high-quality scans or photos of your official identification documents issued by the government.": "Para verificar su identidad, le pedimos que cargue escaneos o fotos de alta calidad de sus documentos de identificación oficiales emitidos por el gobierno.",
    "In order to complete, please upload any of the following personal documents.": "Para completar, cargue cualquiera de los siguientes documentos personales.",
    "To avoid delays with verification process, please double-check to ensure the below requirements are fully met:": "Para evitar retrasos en el proceso de verificación, verifique dos veces para asegurarse de que se cumplan todos los requisitos a continuación:",
    "Chosen credential must not be expired.": "La credencial elegida no debe estar vencida.",
    "Document should be in good condition and clearly visible.": "El documento debe estar en buenas condiciones y claramente visible.",
    "There is no light glare or reflections on the card.": "No hay reflejos ni reflejos de luz en la tarjeta.",
    "File is at least 1 MB in size and has at least 300 dpi resolution.": "El archivo tiene un tamaño mínimo de 1 MB y una resolución mínima de 300 ppp.",
    "Upload Here Your :doctype Copy": "Sube aquí tu copia :doctype",
    "Drag and drop file": "Arrastrar y soltar archivo",
    "or": "o",
    "Select": "Seleccione",
    "Upload Here Your National ID Back Side": "Cargue aquí su DNI Reverso",
    "Upload a selfie as a Photo Proof while holding document in your hand": "Cargue una selfie como prueba fotográfica mientras sostiene el documento en la mano",
    "Your Paying Wallet": "Su billetera de pago",
    "Submit your wallet address that you are going to send funds": "Envíe la dirección de su billetera a la que va a enviar fondos",
    "DO NOT USE your exchange wallet address such as Kraken, Bitfinex, Bithumb, Binance etc.": "NO UTILICE la dirección de su billetera de intercambio, como Kraken, Bitfinex, Bithumb, Binance, etc.",
    "Select Wallet": "Seleccione Monedero",
    "Enter your :Name wallet address": "Ingrese la dirección de su billetera :Name",
    "Enter your wallet address": "Ingrese la dirección de su billetera",
    "Your personal wallet address": "Su dirección de billetera personal",
    "Note:": "Nota:",
    "You should read our terms and policy.": "Debe leer nuestros términos y política.",
    "I have read the": "He leído el",
    "Confirm that all information is correct.": "Confirme que toda la información es correcta.",
    "All the personal information I have entered is correct.": "Toda la información personal que he ingresado es correcta.",
    "Certify that you are individual.": "Certifica que eres persona física.",
    "I certify that, I am registering to participate in the token distribution event(s) in the capacity of an individual (and beneficial owner) and not as an agent or representative of a third party corporate entity.": "Certifico que me estoy registrando para participar en los eventos de distribución de tokens en calidad de individuo (y beneficiario final) y no como agente o representante de una entidad corporativa de terceros.",
    "Confirm that you understand.": "Confirme que entiende.",
    "I understand that, I can participate in the token distribution event(s) only with the wallet address that was entered in the application form.": "Entiendo que puedo participar en los eventos de distribución de tokens solo con la dirección de billetera que se ingresó en el formulario de solicitud.",
    "Proceed to Verify": "Proceder a Verificar",
    "Transaction Details": "Detalles de la transacción",
    "You have successfully paid this transaction": "Ha pagado con éxito esta transacción",
    "The order no. :orderid was placed on :datetime.": "El pedido no. :orderid se colocó en :datetime.",
    "Sorry! Your order has been :status due to payment.": "¡Lo siento! Su pedido ha sido :status debido al pago.",
    "Token Details": "Detalles del token",
    "Types": "Tipos",
    "Token of Stage": "Token de etapa",
    "Token Amount (T)": "Cantidad de Tokens (T)",
    "Bonus Token (B)": "Token de bonificación (B)",
    "Total Payment": "Pago total",
    "Refunded Token": "Token reembolsada",
    "Refunded Amount": "Importe reembolsado",
    "Token Send To": "Token Enviar a",
    "Token Receive From": "Token recibido de",
    "Referral Bonus For": "Bono de referencia para",
    "Refund Note": "Nota de reembolso",
    "Transaction has been approved at :time.": "La transacción ha sido aprobada en :time.",
    "The transaction is currently under review. We will send you an email once our review is complete.": "La transacción está actualmente bajo revisión. Le enviaremos un correo electrónico una vez que finalice nuestra revisión.",
    "The transaction was canceled by Administrator at :time.": "La transacción fue cancelada por el Administrador en :time.",
    "You have canceled this transaction.": "Has cancelado esta transacción.",
    "The transfer request was canceled at :time.": "La solicitud de transferencia se canceló en :time.",
    "Dashboard": "Panel",
    "Buy Token": "Comprar token",
    "Transactions": "Transacciones",
    "My Token": "Mi Token",
    "Profile": "Perfil",
    "Something is Wrong!": "¡Algo está mal!",
    "Do you really cancel your order?": "¿Realmente cancelas tu pedido?",
    "Unable process request!": "¡No se puede procesar la solicitud!",
    "Are you sure?": "¿Está seguro?",
    "Unable to perform!": "¡No se pudo realizar!",
    "Please use a modern browser to properly view this template!": "Utilice un navegador moderno para ver correctamente esta plantilla.",
    "Whoops!": "¡Vaya!",
    "Hello!": "¡Hola!",

    "Total Tokens": "Tokens totales",
    "Total Referrals": "Referencias totales",
    "Status": "Estado",
    "Comments": "Comentarios",
    "Overview of": "Visión general de",
    "Token Issued": "Token emitida",
    "In based price": "En precio basado",
    "Token Sold": "Token vendida",
    "Sold Out": "Agotado",
    "Unsold": "No vendido",
    "Token": "Token",
    "In Progress": "En curso",
    "Waiting for Approve (Purchase only)": "En espera de aprobación (solo compra)",
    "Sold Details": "Vendido Detalles",
    "Total Purchased": "Total Comprado",
    "Included Bonus": "Bono incluido",
    "Based Bonus": "Bono basado",
    "Amount Bonus": "Monto de bonificación",
    "Total Bonuses": "Bonos totales",
    "Total Collected": "Total Recaudado",
    "In Currency": "en moneda",
    "Oops! Payment Canceled!": "¡Ups! ¡Pago cancelado!",
    "You have canceled your payment. If you continue to have issues, please contact us with order no. :orderid.": "Ha cancelado su pago. Si continúa teniendo problemas, contáctenos con el número de pedido. :orderid.",
    "We're reviewing your payment.": "Estamos revisando su pago.",
    "We'll review your transaction and get back to your within 6 hours. You'll receive an email with the details of your contribution.": "Revisaremos su transacción y nos pondremos en contacto con usted dentro de las 6 horas. Recibirás un correo electrónico con los detalles de tu contribución.",
    "We’re received your payment.": "Recibimos su pago.",
    "Thank you for your contribution, we are added the token to your account balance.": "Gracias por su contribución, agregamos el token al saldo de su cuenta.",
    "DO NOT USE your exchange wallet address OR if you don't have a private key of the your address. You WILL NOT receive your token and WILL LOSE YOUR FUNDS if you do.": "NO USE la dirección de su billetera de intercambio O si no tiene una clave privada de su dirección. NO recibirá su token y PERDERÁ SUS FONDOS si lo hace.",
    "In order to receive your :SYMBOL token, please select your wallet address and you have to put the address below input box. You will receive :SYMBOL token to this address after the token sale end.": "Para recibir su token :SYMBOL, seleccione la dirección de su billetera y debe colocar la dirección debajo del cuadro de entrada. Recibirá token :SYMBOL en esta dirección después de que finalice la venta del token.",
    "Current Wallet": "Cartera actual",
    "Request for change": "Solicitud de cambio",
    "Wallet Type": "Tipo de billetera",
    ":Name Wallet Address for receiving token": "Dirección de billetera :Name para recibir token",
    "Add Wallet": "Agregar billetera",
    "Enter your new :Name wallet address": "Ingrese su nueva dirección de billetera :Name",
    "Request for Update Wallet": "Solicitud de actualización de billetera",
    "Begin your ID-Verification": "Comience su verificación de identidad",
    "Verify your identity to participate in token sale.": "Verifica tu identidad para participar en la venta de tokens.",
    ":symbol Token Balance": "Saldo de Tokens :symbol",
    "My :symbol Token": "Mi Token :symbol",
    "+:amount :symbol Pending Request": "+:cantidad :symbol Solicitud pendiente",
    "Buy More Token": "Comprar más Tokens",
    "Total Token Amount": "Cantidad total de Tokens",
    "Purchased Token": "Token comprada",
    "Referral Token": "Token de referencia",
    "Bonuses Token": "Token de bonificación",
    "Transfer Token": "Token de transferencia",
    "Total Contributed": "Total Aportado",
    "Stage Name": "Nombre principal",
    "Bonus": "Bonus",
    "Referral": "Referido",
    "User Account": "Cuenta de usuario",
    "Personal Data": "Información personal",
    "Settings": "Ajustes",
    "Full Name": "Nombre completo",
    "Enter Full Name": "Ingrese el nombre completo",
    "Enter Email Address": "Introducir la dirección de correo electrónico",
    "Mobile Number": "Número de teléfono móvil",
    "Enter Mobile Number": "Ingrese el número de móvil",
    "Nationality": "Nacionalidad",
    "Update Profile": "Actualización del perfil",
    "Security Settings": "Configuraciones de seguridad",
    "Save my activities log": "Guardar mi registro de actividades",
    "Alert me by email in case of unusual activity in my account": "Avisarme por correo electrónico en caso de actividad inusual en mi cuenta",
    "Old Password": "Contraseña anterior",
    "Confirm New Password": "Confirmar nueva contraseña",
    "Password should be a minimum of 6 digits and include lower and uppercase letter.": "La contraseña debe tener un mínimo de 6 dígitos e incluir letras mayúsculas y minúsculas.",
    "Your password will only change after your confirmation by email.": "Su contraseña solo cambiará después de su confirmación por correo electrónico.",
    "Two-factor authentication is a method for protection of your account. When it is activated you are required to enter not only your password, but also a special code. You can receive this code in mobile app. Even if third party gets access to your password, they still won't be able to access your account without the 2FA code.": "La autenticación de dos factores es un método para proteger su cuenta. Cuando está activado, debe ingresar no solo su contraseña, sino también un código especial. Puede recibir este código en la aplicación móvil. Incluso si un tercero obtiene acceso a su contraseña, no podrá acceder a su cuenta sin el código 2FA.",
    "Current Status:": "Estado actual:",
    "Enabled": "Activado",
    "Disabled": "Desactivado",
    "Enable 2FA": "Habilitar 2FA",
    "Disable 2FA": "Deshabilitar 2FA",
    "Enable": "Permitir",
    "Disable": "Desactivar",
    "Step 1:": "Paso 1:",
    "Install this app from": "Instala esta aplicación desde",
    "Google Play": "Google Play",
    "store or": "almacenar o",
    "App Store": "Tienda de aplicaciones",
    "Step 2:": "Paso 2:",
    "Scan the below QR code by your Google Authenticator app, or you can add account manually.": "Escanee el siguiente código QR con su aplicación Google Authenticator, o puede agregar una cuenta manualmente.",
    "Manually add Account:": "Agregar cuenta manualmente:",
    "Account Name:": "Nombre de la cuenta:",
    "Key:": "Llave:",
    "Enter Google Authenticator Code": "Ingrese el código de autenticación de Google",
    "Enter the Code to verify": "Ingrese el código para verificar",
    "Confirm 2FA": "Confirmar 2FA",
    "If you lost your phone or uninstall the Google Authenticator app, then you will lost access of your account.": "Si perdió su teléfono o desinstaló la aplicación Google Authenticator, perderá el acceso a su cuenta.",
    "Your profile picture has been updated successfully": "Tu foto de perfil ha sido actualizada con éxito",
    "Something went wrong, try again later": "Algo salió mal, inténtalo de nuevo más tarde",
    "User Activity": "Actividad del usuario",
    "Account Activities Log": "Registro de actividades de la cuenta",
    "Clear All": "Limpiar todo",
    "Here is your recent activities. You can clear this log as well as disable the feature from profile settings tabs.": "Aquí están sus actividades recientes. Puede borrar este registro y deshabilitar la función desde las pestañas de configuración del perfil.",
    "Date": "Fecha",
    "Device": "Dispositivo",
    "Browser": "Navegador",
    "IP": "IP",
    "Once Delete, You will not get back this log in future!": "Una vez que elimine, ¡no recuperará este registro en el futuro!",
    "User Dashboard": "Panel de usuario",
    "KYC Verification": "Verificación KYC",
    "You have not submitted your necessary documents to verify your identity.": "No ha enviado los documentos necesarios para verificar su identidad.",
    "In order to purchase our tokens, please verify your identity.": "Para comprar nuestros tokens, verifique su identidad.",
    "It would great if you please submit the form. If you have any question, please feel free to contact our support team.": "Sería genial si por favor envíe el formulario. Si tiene alguna pregunta, no dude en ponerse en contacto con nuestro equipo de soporte.",
    "Click here to complete your KYC": "Haga clic aquí para completar su KYC",
    "You have completed the process of KYC": "Ha completado el proceso de KYC",
    "We are still waiting for your identity verification. Once our team verified your identity, you will be notified by email. You can also check your KYC  compliance status from your profile page.": "Todavía estamos esperando su verificación de identidad. Una vez que nuestro equipo haya verificado su identidad, se le notificará por correo electrónico. También puede verificar su estado de cumplimiento de KYC desde su página de perfil.",
    "Back to Profile": "Volver al perfil",
    "Your application verification under process.": "Verificación de su solicitud en proceso.",
    "We are still working on your identity verification. Once our team verified your identity, you will be notified by email.": "Todavía estamos trabajando en su verificación de identidad. Una vez que nuestro equipo haya verificado su identidad, se le notificará por correo electrónico.",
    "We found some information to be missing.": "Encontramos que faltaba información.",
    "Sorry! Your application was rejected.": "¡Lo siento! Su solicitud fue rechazada.",
    "In our verification process, we found information that is incorrect or missing. Please resubmit the form. In case of any issues with the submission please contact our support team.": "En nuestro proceso de verificación, encontramos información incorrecta o faltante. Vuelva a enviar el formulario. En caso de problemas con el envío, comuníquese con nuestro equipo de soporte.",
    "Submit Again": "Enviar de nuevo",
    "Your identity verified successfully.": "Su identidad verificada con éxito.",
    "One of our team members verified your identity. Now you can participate in our token sale. Thank you.": "Uno de los miembros de nuestro equipo verificó su identidad. Ahora puedes participar en nuestra venta de tokens. Gracias.",
    "Begin ID-Verification": "Comenzar la verificación de identidad",
    "KYC Details": "Detalles de KYC",
    "Referral URL": "URL de referencia",
    "Use above link to refer your friend and get referral bonus.": "Use el enlace anterior para recomendar a su amigo y obtener una bonificación por recomendación.",
    "Referral Lists": "Listas de referencia",
    "User Name": "Nombre de usuario",
    "Earn Token": "ganar token",
    "Register Date": "Fecha de registro",
    "~": "~",
    "No one join yet!": "¡Nadie se une todavía!",
    "Sales Start at": "Las ventas comienzan en",
    "Choose currency and calculate :SYMBOL token price": "Elija la moneda y calcule el precio del token :SYMBOL",
    "You can buy our :SYMBOL token using the below currency choices to become part of our project.": "Puede comprar nuestro token :SYMBOL utilizando las siguientes opciones de moneda para formar parte de nuestro proyecto.",
    "Amount of contribute": "cantidad de contribuir",
    "Enter the amount you would like to contribute in order to calculate the amount of tokens you will receive. The calculator below helps to convert the required quantity of tokens into the amount of your selected currency.": "Ingrese la cantidad que le gustaría contribuir para calcular la cantidad de tokens que recibirá. La calculadora a continuación ayuda a convertir la cantidad requerida de tokens en la cantidad de la moneda seleccionada.",
    "Minimum contribution amount is required.": "Se requiere un monto mínimo de contribución.",
    "On Sale": "En venta",
    "Sale Bonus": "Bono de venta",
    "Total": "Total",
    "Your contribution will be calculated based on exchange rate at the moment when your transaction is confirmed.": "Su contribución se calculará en función del tipo de cambio en el momento en que se confirme su transacción.",
    "Tokens will appear in your account after payment successfully made and approved by our team. Please note that, :SYMBOL token will be distributed after the token sales end-date.": "Los tokens aparecerán en su cuenta después de que nuestro equipo haya realizado y aprobado el pago con éxito. Tenga en cuenta que el token :SYMBOL se distribuirá después de la fecha de finalización de las ventas del token.",
    "Token Sales": "Ventas de Tokens",
    "Token Price": "Precio de la Token",
    "Exchange Rate": "Tipo de cambio",
    "Current Bonus": "Bono actual",
    "End at": "Termina en",
    "Maximum you can purchase :maximum_token token per contribution.": "Máximo que puede comprar token :maximum_token por contribución.",
    "Enter minimum :minimum_token token and select currency!": "¡Ingrese el token mínimo :minimum_token y seleccione la moneda!",
    "User Transactions": "Transacciones de usuario",
    "Transactions list": "Lista de transacciones",
    "Any Type": "Cualquier tipo",
    "Purchase": "Compra",
    "Show All": "Mostrar todo",
    "Canceled": "Cancelado",
    "Tranx NO": "Tranx NO",
    "To": "Para",
    "Type": "Tipo",
    "Refunded #:orderid": "Reembolsado #:orderid",
    "Pay": "Pagar",
    "Image": "Imagen",



    "pagination.previous": "&laquo; Anterior",
    "pagination.next": "Siguiente &raquo;",

    "passwords.password": "Las contraseñas deben tener al menos seis caracteres y coincidir con la confirmación.",
    "passwords.reset": "¡Su contraseña ha sido restablecida!",
    "passwords.sent": "¡Recordatorio de contraseña enviado!",
    "passwords.token": "Este token de restablecimiento de contraseña es inválido.",
    "passwords.user": "No se ha encontrado un usuario con esa dirección de correo.",

    "auth.failed": "Estas credenciales no coinciden con nuestros registros.",
    "auth.throttle": "Demasiados intentos de acceso. Por favor inténtelo de nuevo en :seconds segundos.",
    "auth.recaptcha": "Su solicitud no pudo completarse porque se detectó un bot.",
    "auth.health.save_action": "Regístrese y active la aplicación para realizar la acción.",
    "auth.health.fail": "Invalidada-la-licencia-por-clave-equivocada",

    "validation.accepted": "El campo :attribute debe ser aceptado.",
    "validation.active_url": "El campo :attribute no es una URL válida.",
    "validation.after": "El campo :attribute debe ser una fecha posterior a :date.",
    "validation.after_or_equal": "El campo :attribute debe ser una fecha posterior o igual a :date.",
    "validation.alpha": "El campo :attribute solo puede contener letras.",
    "validation.alpha_dash": "El campo :attribute solo puede contener letras, números, guiones y guiones bajos.",
    "validation.alpha_num": "El campo :attribute solo puede contener letras y números.",
    "validation.array": "El campo :attribute debe ser un array.",
    "validation.before": "El campo :attribute debe ser una fecha anterior a :date.",
    "validation.before_or_equal": "El campo :attribute debe ser una fecha anterior o igual a :date.",
    "validation.between.numeric": "El campo :attribute debe ser un valor entre :min y :max.",
    "validation.between.file": "El archivo :attribute debe pesar entre :min y :max kilobytes.",
    "validation.between.string": "El campo :attribute debe contener entre :min y :max caracteres.",
    "validation.between.array": "El campo :attribute debe contener entre :min y :max elementos.",
    "validation.boolean": "El campo :attribute debe ser verdadero o falso.",
    "validation.confirmed": "El campo confirmación de :attribute no coincide.",
    "validation.date": "El campo :attribute no corresponde con una fecha válida.",
    "validation.date_equals": "El campo :attribute debe ser una fecha igual a :date.",
    "validation.date_format": "El campo :attribute no corresponde con el formato de fecha :format.",
    "validation.different": "Los campos :attribute y :other deben ser diferentes.",
    "validation.digits": "El campo :attribute debe ser un número de :digits dígitos.",
    "validation.digits_between": "El campo :attribute debe contener entre :min y :max dígitos.",
    "validation.dimensions": "El campo :attribute tiene dimensiones de imagen inválidas.",
    "validation.distinct": "El campo :attribute tiene un valor duplicado.",
    "validation.email": "El campo :attribute debe ser una dirección de correo válida.",
    "validation.exists": "El campo :attribute seleccionado no existe..",
    "validation.file": "El campo :attribute debe ser un archivo.",
    "validation.filled": "El campo :attribute debe tener un valor.",
    "validation.gt.numeric": "El campo :attribute debe ser mayor a :value.",
    "validation.gt.file": "El archivo :attribute debe pesar más de :value kilobytes.",
    "validation.gt.string": "El campo :attribute debe contener más de :value caracteres.",
    "validation.gt.array": "El campo :attribute debe contener más de :value elementos.",
    "validation.gte.numeric": "El campo :attribute debe ser mayor o igual a :value.",
    "validation.gte.file": "El archivo :attribute debe pesar :value o más kilobytes.",
    "validation.gte.string": "El campo :attribute debe contener :value o más caracteres.",
    "validation.gte.array": "El campo :attribute debe contener :value o más elementos.",
    "validation.image": "El campo :attribute debe ser una imagen.",
    "validation.in": "El campo :attribute es inválido.",
    "validation.in_array": "El campo :attribute no existe en :other.",
    "validation.integer": "El campo :attribute debe ser un número entero.",
    "validation.ip": "El campo :attribute debe ser una dirección IP válida.",
    "validation.ipv4": "El campo :attribute debe ser una dirección IPv4 válida.",
    "validation.ipv6": "El campo :attribute debe ser una dirección IPv6 válida.",
    "validation.json": "El campo :attribute debe ser una cadena de texto JSON válida.",
    "validation.lt.numeric": "El campo :attribute debe ser menor a :value.",
    "validation.lt.file": "El archivo :attribute debe pesar menos de :value kilobytes.",
    "validation.lt.string": "El campo :attribute debe contener menos de :value caracteres.",
    "validation.lt.array": "El campo :attribute debe contener menos de :value elementos.",
    "validation.lte.numeric": "El campo :attribute debe ser menor o igual a :value.",
    "validation.lte.file": "El archivo :attribute debe pesar :value o menos kilobytes.",
    "validation.lte.string": "El campo :attribute debe contener :value o menos caracteres.",
    "validation.lte.array": "El campo :attribute debe contener :value o menos elementos.",
    "validation.max.numeric": "El campo :attribute no debe ser mayor a :max.",
    "validation.max.file": "El archivo :attribute no debe pesar más de :max kilobytes.",
    "validation.max.string": "El campo :attribute no debe contener más de :max caracteres.",
    "validation.max.array": "El campo :attribute no debe contener más de :max elementos.",
    "validation.mimes": "El campo :attribute debe ser un archivo de tipo: :values.",
    "validation.mimetypes": "El campo :attribute debe ser un archivo de tipo: :values.",
    "validation.min.numeric": "El campo :attribute debe ser al menos :min.",
    "validation.min.file": "El archivo :attribute debe pesar al menos :min kilobytes.",
    "validation.min.string": "El campo :attribute debe contener al menos :min caracteres.",
    "validation.min.array": "El campo :attribute debe contener al menos :min elementos.",
    "validation.not_in": "El campo :attribute seleccionado es inválido.",
    "validation.not_regex": "El formato del campo :attribute es inválido.",
    "validation.numeric": "El campo :attribute debe ser un número.",
    "validation.present": "El campo :attribute debe estar presente.",
    "validation.regex": "El formato del campo :attribute es inválido.",
    "validation.required": "El campo :attribute es obligatorio",
    "validation.required_if": "El campo :attribute es obligatorio cuando el campo :other es :value.",
    "validation.required_unless": "El campo :attribute es requerido a menos que :other se encuentre en :values.",
    "validation.required_with": "El campo :attribute es obligatorio cuando :values está presente.",
    "validation.required_with_all": "El campo :attribute es obligatorio cuando :values están presentes.",
    "validation.required_without": "El campo :attribute es obligatorio cuando :values no está presente.",
    "validation.required_without_all": "El campo :attribute es obligatorio cuando ninguno de los campos :values están presentes.",
    "validation.same": "Los campos :attribute y :other deben coincidir.",
    "validation.size.numeric": "El campo :attribute debe ser :size.",
    "validation.size.file": "El archivo :attribute debe pesar :size kilobytes.",
    "validation.size.string": "El campo :attribute debe contener :size caracteres.",
    "validation.size.array": "El campo :attribute debe contener :size elementos.",
    "validation.starts_with": "El campo :attribute debe comenzar con uno de los siguientes valores: :values",
    "validation.string": "El campo :attribute debe ser una cadena de caracteres.",
    "validation.timezone": "El campo :attribute debe ser una zona horaria válida.",
    "validation.unique": "El valor del campo :attribute ya está en uso.",
    "validation.uploaded": "El campo :attribute no se pudo subir.",
    "validation.url": "El formato del campo :attribute es inválido.",
    "validation.uuid": "El campo :attribute debe ser un UUID válido.",
    "validation.custom.attribute-name.rule-name": "custom-message"
}