{
    "Download Whitepaper": "Teknik İncelemeyi İndirin",
    "Currently we are facing some technical issue, please try again after sometime.": "Şu anda bazı teknik sorunlarla karşı karşıyayız, lütfen bir süre sonra tekrar deneyin.",
    "Token Balance": "Jeton Bakiyesi",
    "Your Contribution in": "Katkınız",
    "Equivalent to": "Eşittir",
    "Token Name": "Jeton Adı",
    "Token Symbol": "jeton sembolü",
    "Buy Token Now": "Şimdi Jeton Satın Alın",
    "Add your wallet address before buy": "Satın almadan önce cüzdan adresinizi ekleyin",
    "Identity Verification - KYC": "Kimlik Doğrulama - KYC",
    "To comply with regulation, participant will have to go through identity verification.": "Düzenlemeye uymak için, katılımcının kimlik doğrulamasından geçmesi gerekecektir.",
    "You have not submitted your documents to verify your identity (KYC).": "Kimliğinizi (KYC) doğrulamak için belgelerinizi göndermediniz.",
    "Click to Proceed": "Devam etmek için tıklayın",
    "We have received your document.": "Belgenizi aldık.",
    "We will review your information and if all is in order will approve your identity. You will be notified by email once we verified your identity (KYC).": "Bilgilerinizi gözden geçireceğiz ve her şey yolundaysa kimliğinizi onaylayacağız. Kimliğinizi doğruladığımızda (KYC) e-posta ile bilgilendirileceksiniz.",
    "KYC Application has been rejected!": "KYC Başvurusu reddedildi!",
    "We were having difficulties verifying your identity. In our verification process, we found information are incorrect or missing. Please re-submit the application again and verify your identity.": "Kimliğinizi doğrulamakta güçlük çekiyorduk. Doğrulama sürecimizde bilgilerin yanlış veya eksik olduğunu tespit ettik. Lütfen başvuruyu yeniden gönderin ve kimliğinizi doğrulayın.",
    "Resubmit": "yeniden gönder",
    "Identity (KYC) has been verified.": "Kimlik (KYC) doğrulandı.",
    "One for our team verified your identity. You are eligible to participate in our token sale.": "Ekibimiz için bir tane kimliğinizi doğruladı. Token satışımıza katılmaya uygunsunuz.",
    "Purchase Token": "Jeton satın al",
    "KYC verification required for purchase token": "Satın alma jetonu için KYC doğrulaması gerekiyor",
    "Your Account Status": "Hesap Durumunuz",
    "Resend Email": "Elektronik postayı tekrar gönder",
    "Email Verified": "E-posta Doğrulandı",
    "KYC Approved": "KYC Onaylandı",
    "KYC Pending": "KYC Beklemede",
    "Receiving Wallet": "Cüzdanı Almak",
    "New address under review for approve.": "Yeni adres onay için inceleniyor.",
    "Add Your Wallet Address": "Cüzdan Adresinizi Ekleyin",
    "Edit": "Düzenlemek",
    "Add": "Ekle",
    "Logout": "Çıkış Yap",
    "Withdraw": "Geri çekilmek",
    "My Profile": "Benim profilim",
    "Activity": "Aktivite",
    "Contact our support team via email": "Destek ekibimizle e-posta yoluyla iletişime geçin",
    "Token Sales Progress": "Jeton Satış İlerlemesi",
    "Raised Amount": "Yükseltilmiş Tutar",
    "Total Token": "Toplam Jeton",
    "Hard Cap": "Sert Kapak",
    "Soft Cap": "Yumuşak Kapak",
    "Sales End in": "Satış Bitiş",
    "Sales Start in": "Satış Başlangıcı",
    "Our token sales has been finished. Thank you very much for your contribution.": "Token satışlarımız tamamlanmıştır. Katkılarınız için çok teşekkür ederim.",
    "More": "Daha",
    "Earn with Referral": "Tavsiye ile Kazanın",
    "Invite your friends & family.": "Arkadaşlarınızı ve ailenizi davet edin.",
    "Dear :fullname, congrats!": "Sevgili :fullname, tebrikler!",
    "Until now, you have earned": "Şimdiye kadar, kazandın",
    "Dear :fullname, welcome!": "Sevgili :fullname, hoş geldiniz!",
    "You can get more...": "Daha fazlasını alabilirsiniz...",
    "To unlock :level stage invite :number more friends": " :level aşamasının kilidini açmak için :number daha fazla arkadaş davet edin",
    "To unlock other benefits and earn more :currency, share your Referral Link with others:": "Diğer avantajların kilidini açmak ve daha fazla :currency kazanmak için Yönlendirme Bağlantınızı başkalarıyla paylaşın:",
    "Welcome!": "Hoş geldin!",
    "You provided a invalid 2FA authentication code!": "Geçersiz bir 2FA kimlik doğrulama kodu sağladınız!",
    "Please enter a valid authentication code!": "Lütfen geçerli bir kimlik doğrulama kodu girin!",
    "Envato Username is required for activation.": "Aktivasyon için Envato Kullanıcı Adı gereklidir.",
    "Your Email address is required for activation.": "E-posta adresiniz aktivasyon için gereklidir.",
    "Please enter a valid email address.": "Geçerli bir e.",
    "Envato Purchase Code is required for activation.": "Aktivasyon için Envato Satın Alma Kodu gereklidir.",
    "Please enter a valid purchase code.": "Lütfen geçerli bir satın alma kodu girin.",
    "Enter valid email.": "Geçerli e-posta girin.",
    "Unable to proceed request!": "İsteğe devam edilemiyor!",
    "Base Price": "Taban fiyat",
    "Sorry! unable to find translate data for the language.": "Afedersiniz! dil için çeviri verileri bulamıyor.",
    "The language name should be unique and indentical.": "Dil adı benzersiz ve aynı olmalıdır.",
    "The language code name should be unique.": "Dil kod adı benzersiz olmalıdır.",
    ":name language added successfully.": ":name dili başarıyla eklendi.",
    "Sorry! unable to find the language.": "Afedersiniz! dili bulamıyor.",
    "Sorry! unable find the language.": "Afedersiniz! dili bulamıyor.",
    "Sorry! unable to update translated text.": "Afedersiniz! çevrilmiş metni güncelleyemiyor.",
    "Failed to generate the language file.": "Dil dosyası oluşturulamadı.",
    "The language and related translation has been deleted from application.": "Dil ve ilgili çeviri uygulamadan silinmiştir.",
    "Refund Successful!": "Geri Ödeme Başarılı!",
    "Already Refunded!": "Zaten Geri Ödeme Yapıldı!",
    "Unable to cancel the transaction, reload the page.": "İşlem iptal edilemiyor, sayfayı yeniden yükleyin.",
    "Unable to approve the transaction, reload the page.": "İşlem onaylanamıyor, sayfayı yeniden yükleyin.",
    "Unable to delete the transaction, reload the page.": "İşlem silinemiyor, sayfayı yeniden yükleyin.",
    "Cancel the transaction first.": "Önce işlemi iptal edin.",
    "The transaction already updated or cancelled. Please reload the page and check again.": "İşlem zaten güncellendi veya iptal edildi. Lütfen sayfayı yeniden yükleyin ve tekrar kontrol edin.",
    "Transaction status updated successfully.": "İşlem durumu başarıyla güncellendi.",
    "Payment has not approved yet for this transaction. You may cancel this transaction.": "Bu işlem için ödeme henüz onaylanmadı. Bu işlemi iptal edebilirsiniz.",
    "Select a user first!": "Önce bir kullanıcı seçin!",
    "You do not have enough permissions to perform requested operation.": "İstenen işlemi gerçekleştirmek için yeterli izniniz yok.",
    "There has not any unvarified users!": "Doğrulanmamış kullanıcı yok!",
    "Sorry, Something is wrong, please login via your email & password!": "Üzgünüz, bir şeyler yanlış, lütfen e-postanız ve şifrenizle giriş yapın!",
    "Sorry, Something is wrong, please login via your email & password!!": "Üzgünüz, bir şeyler yanlış, lütfen e-postanız ve şifrenizle giriş yapın!",
    "National ID Card Back-Side": "Ulusal Kimlik Kartı Arka Yüzü",
    "Document on Hand": "Eldeki Belge",
    "Invalid document, only JPEG, PNG and PDF files are allowed.": "Geçersiz belge, yalnızca JPEG, PNG ve PDF dosyalarına izin verilir.",
    "Unknown Error": "Bilinmeyen hata",
    "Remove Failed": "Kaldırılamadı",
    "File Removed": "Dosya Kaldırıldı",
    "Maximum amount reached, You can purchase maximum :amount :symbol per transaction.": "Maksimum miktara ulaşıldı, İşlem başına maksimum :amount :symbol satın alabilirsiniz.",
    "You must purchase minimum :amount :symbol.": "Minimum :amount :symbol satın almalısınız.",
    "Our sales has been finished. Thank you very much for your interest.": "Satışlarımız tamamlanmıştır. İlginiz için çok teşekkür ederim.",
    ":amount :symbol Token is not available.": ":amount :symbol Simge mevcut değil.",
    "Sorry, we're unable to proceed the transaction. This transaction may deleted. Please contact with administrator.": "Üzgünüz, işleme devam edemiyoruz. Bu işlem silinebilir. Lütfen yönetici ile iletişime geçin.",
    "Your transaction is already :status. Sorry, we're unable to proceed the transaction.": "İşleminiz zaten :status. Üzgünüz, işleme devam edemiyoruz.",
    "Your transaction is already :status. Please check your account balance.": "İşleminiz zaten :status. Lütfen hesap bakiyenizi kontrol edin.",
    "Transaction is not found!!": "İşlem bulunamadı!!",
    "Transaction id or key is not valid!": "İşlem kimliği veya anahtarı geçerli değil!",
    "You have provide a invalid 2FA authentication code!": "Geçersiz bir 2FA kimlik doğrulama kodu sağladınız!",
    "Passport": "Pasaport",
    "National ID Card": "Ulusal kimlik kartı",
    "Driver’s License": "Sürücü ehliyeti",
    "Address should be ERC20-compliant.": "Adres ERC20 uyumlu olmalıdır.",
    "Reset Password Notification": "Parola Bildirimini Sıfırla",
    "You are receiving this email because we received a password reset request for your account.": "Bu e-postayı, hesabınız için bir şifre sıfırlama isteği aldığımız için alıyorsunuz.",
    "Reset Password": "Şifreyi yenile",
    "This password reset link will expire in :count minutes.": "Bu parola sıfırlama bağlantısının süresi :count dakika içinde sona erecek.",
    "If you did not request a password reset, no further action is required.": "Parola sıfırlama talebinde bulunmadıysanız, başka bir işlem yapmanız gerekmez.",
    "Select your payment method.": "Ödeme şeklinizi seçin.",
    "Sorry, unable to proceed. Your payment amount is very low.": "Üzgünüm, devam edilemiyor. Ödeme tutarınız çok düşük.",
    "Confirmation Your Payment": "Ödemenizi Onaylayın",
    "Your Order no. :orderid has been placed successfully.": "Sipariş No. :orderid başarıyla yerleştirildi.",
    "Please make your payment of :amount :currency through bank to the below bank address. The token balance will appear in your account only after your transaction gets approved by our team.": "Lütfen :amount :currency ödemenizi banka aracılığıyla aşağıdaki banka adresine yapın. Token bakiyesi, işleminiz ekibimiz tarafından onaylandıktan sonra hesabınızda görünecektir.",
    "Bank Details for Payment": "Ödeme için Banka Bilgileri",
    "Account Name": "Hesap adı",
    "Account Number": "Hesap numarası",
    "Account Holder Address": "Hesap Sahibi Adresi",
    "Bank Name": "Banka adı",
    "Bank Address": "Banka adresi",
    "Routing Number": "Yönlendirme numarası",
    "IBAN": "IBAN",
    "View Transaction": "İşlemi Görüntüle",
    "Cancel Order": "Siparişi iptal et",
    "Use this transaction id (#:orderid) as reference. Make your payment within 24 hours, If we will not received your payment within 24 hours, then we will cancel the transaction.": "Bu işlem kimliğini (#:orderid) referans olarak kullanın. Ödemenizi 24 saat içinde yapın, Ödemenizi 24 saat içinde almazsak işlemi iptal ederiz.",
    "Your Order no. :orderid has been placed & waiting for payment.": "Sipariş No. :orderid yerleştirildi ve ödeme bekleniyor.",
    "To receiving :token :symbol token, please make your payment of :amount :currency through bank to the below bank address. The token balance will appear in your account only after your transaction gets approved by our team.": " :token :symbol jeton almak için lütfen :amount :currency ödemenizi banka aracılığıyla aşağıdaki banka adresine yapın. Token bakiyesi, işleminiz ekibimiz tarafından onaylandıktan sonra hesabınızda görünecektir.",
    "Oops!!!": "Hata!!!",
    "Sorry, seems there is an issues occurred and we couldn’t process your request. Please contact us with your order no. :orderid, if you continue to having the issues.": "Maalesef bir sorun oluştu ve isteğinizi işleme koyamadık. Lütfen sipariş numaranızla bizimle iletişime geçin. :orderid, sorun yaşamaya devam ederseniz.",
    "Close": "Kapat",
    "Payment to the following :Name Wallet Address": "Aşağıdaki :Name Cüzdan Adresine ödeme",
    "Scan QR code to payment.": "Ödeme yapmak için QR kodunu tarayın.",
    "Send Amount:": "Gönderim Tutarı:",
    "SET GAS LIMIT:": "GAZ SINIRINI AYARLAYIN:",
    "SET GAS PRICE:": "GAZ FİYATI BELİRLE:",
    "Gwei": "Gwei",
    "To speed up verification process please enter your wallet address from where you'll transferring your amount to our address.": "Doğrulama sürecini hızlandırmak için lütfen tutarınızı adresimize aktaracağınız cüzdan adresinizi girin.",
    "Insert your payment address": "Ödeme adresinizi girin",
    "Confirm Payment": "Ödemeyi Onayla",
    "I'll provide wallet address later": "Cüzdan adresini daha sonra vereceğim",
    "Do not make payment through exchange (Kraken, Bitfinex). You can use MyEtherWallet, MetaMask, Mist wallets etc.": "Borsa (Kraken, Bitfinex) yoluyla ödeme yapmayın. MyEtherWallet, MetaMask, Mist cüzdanları vb. kullanabilirsiniz.",
    "In case you send a different amount, number of :SYMBOL token will update accordingly.": "Farklı bir miktar göndermeniz durumunda, :SYMBOL jeton sayısı buna göre güncellenecektir.",
    "To receiving :token :symbol token, please send :amount :currency to the address below. The token balance will appear in your account only after transaction gets :num confirmation and approved by our team.": " :token :symbol jeton almak için lütfen aşağıdaki adrese :amount :currency gönderin. Token bakiyesi, yalnızca işlem :num onayını aldıktan ve ekibimiz tarafından onaylandıktan sonra hesabınızda görünecektir.",
    "Scan QR code to Payment.": "Ödeme için QR kodunu tarayın.",
    "Unable to send email notification.": "E-posta bildirimi gönderilemiyor.",
    "The email has been sent successfully.": "E-posta başarıyla gönderildi.",
    "Thank You, We have received your payment!": "Teşekkürler, ödemenizi aldık!",
    "To receiving :token :symbol token, please make your payment of :amount :currency through :gateway. The token balance will appear in your account once we received your payment.": " :token :symbol jeton almak için lütfen :amount :currency ila :gateway arasındaki ödemenizi yapın. Ödemenizi aldıktan sonra jeton bakiyesi hesabınızda görünecektir.",
    "Make Payment": "Ödeme yapmak",
    "Payment Process": "Ödeme süreci",
    "Please make payment of :amount to receive :token_amount token including bonus :token_bonus token.": "Bonus :token_bonus jeton dahil :token_amount jeton almak için lütfen :amount ödeme yapın.",
    "Please make payment of :amount to receive :token_amount token.": "Lütfen :token_amount jeton almak için :amount ödeme yapın.",
    "You can choose any of following payment method to make your payment. The token balance will appear in your account after successful payment.": "Ödemenizi yapmak için aşağıdaki ödeme yöntemlerinden herhangi birini seçebilirsiniz. Başarılı ödemeden sonra jeton bakiyesi hesabınızda görünecektir.",
    "Select payment method:": "Ödeme türünü seçin:",
    "Payment gateway may charge you a processing fees.": "Ödeme ağ geçidi sizden işlem ücreti alabilir.",
    "You should accept our terms and policy.": "Şartlarımızı ve politikamızı kabul etmelisiniz.",
    "I hereby agree to the token purchase agreement and token sale term.": "İşbu belge ile jeton satın alma sözleşmesini ve jeton satış şartını kabul ediyorum.",
    "Our payment address will appear or redirect you for payment after the order is placed.": "Ödeme adresimiz, sipariş verildikten sonra görünecek veya ödeme için sizi yönlendirecektir.",
    "Sorry! There is no payment method available for this currency. Please choose another currency or contact our support team.": "Afedersiniz! Bu para birimi için kullanılabilir bir ödeme yöntemi yok. Lütfen başka bir para birimi seçin veya destek ekibimizle iletişime geçin.",
    ":lang Translation": ":lang Çeviri",
    ":page Translation": ":page Çeviri",
    "Instruction for Translation": "Çeviri Talimatı",
    "Default Text": "Varsayılan metin",
    ":lang Text": ":lang Metin",
    "Not yet": "Henüz değil",
    "Language Settings": "Dil ayarları",
    "Update": "Güncelleme",
    "Add New Language": "Yeni Dil Ekle",
    "Add Language": "Dil Ekle",
    "Profile Details": "profil detayları",
    "Two-Factor Verification": "İki Faktörlü Doğrulama",
    "2FA Authentication": "2FA Kimlik Doğrulaması",
    "Hello": "Merhaba",
    "Enter the verification code generated by your mobile application (Google Authenticator).": "Mobil uygulamanız (Google Authenticator) tarafından oluşturulan doğrulama kodunu girin.",
    "Required.": "Gerekli.",
    "Maximum :num chars.": "Maksimum :num karakter.",
    "Enter your authentication code": "Kimlik doğrulama kodunuzu girin",
    "Sign in": "Kayıt olmak",
    "If you lost your phone or Uninstall the Google Authenticator app and enable to access your account please contact with us.": "Telefonunuzu kaybettiyseniz veya Google Authenticator uygulamasını kaldırıp hesabınıza erişmeyi etkinleştirdiyseniz lütfen bizimle iletişime geçin.",
    "Sign-in": "Kayıt olmak",
    "with your": "seninki ile",
    "Account": "Hesap",
    "Your Email": "E-posta adresiniz",
    "Password": "Parola",
    "At least :num chars.": "En az :num karakter.",
    "Remember Me": "Beni Hatırla",
    "Forgot password?": "Parolanızı mı unuttunuz?",
    "Sign In": "Kayıt olmak",
    "Or Sign in with": "Veya Şununla oturum açın:",
    "Facebook": "Facebook",
    "Google": "Google",
    "Don’t have an account?": "Hesabınız yok mu?",
    "Sign up here": "buradan kaydolun",
    "Welcome": "Hoş geldin",
    "Reset password": "Şifreyi yenile",
    "If you forgot your password, well, then we'll email you instructions to reset your password.": "Parolanızı unuttuysanız, parolanızı sıfırlamak için talimatları size e-postayla göndereceğiz.",
    "Your Email Address": "E",
    "Send Reset Link": "Sıfırlama Bağlantısı Gönder",
    "Return to login": "Girişe dön",
    "Change Password": "Şifre değiştir",
    "New Password": "Yeni Şifre",
    "Again Password": "Tekrar Şifre",
    "Sign up": "Üye olmak",
    "Create New": "Yeni oluşturmak",
    "Your UserName": "Kullanıcı adınızı",
    "Your Name": "Adınız",
    "Repeat Password": "Şifreyi tekrar girin",
    "Enter the same value.": "Aynı değeri girin.",
    "Your were invited by :userid": " :userid tarafından davet edildiniz",
    "I agree to the": "Katılıyorum",
    "and": "ve",
    "By registering you agree to the terms and conditions.": "Kaydolarak şartlar ve koşulları kabul etmiş olursunuz.",
    "Complete Installation": "Kurulumu Tamamla",
    "Create Account": "Hesap oluştur",
    "Or Sign up with": "Veya ile kaydolun",
    "Already have an account ?": "Zaten hesabınız var mı ?",
    "Sign in instead": "Bunun yerine oturum açın",
    "Reset 2FA Authentication": "2FA Kimlik Doğrulamasını Sıfırla",
    "Please enter your account password to reset 2FA authentication.": "2FA kimlik doğrulamasını sıfırlamak için lütfen hesap şifrenizi girin.",
    "Enter Password": "Parolanı Gir",
    "Cancel Signup": "Kaydı İptal Et",
    "A fresh verification link has been sent to your email address.": "E-posta adresinize yeni bir doğrulama bağlantısı gönderildi.",
    "Please verify your email address.": "Lütfen email adresini doğrula.",
    "Before proceeding, please check your email for a verification link.": "Devam etmeden önce, lütfen bir doğrulama bağlantısı için e-postanızı kontrol edin.",
    "If you did not receive the email, click the button to resend.": "E-postayı almadıysanız, yeniden göndermek için düğmeye tıklayın.",
    "Sign Out": "Oturumu Kapat",
    "Type in to Search": "Aramak için yazın",
    "No records": "Kayıt yok",
    "First": "Birinci",
    "Last": "Geçen",
    "Next": "Sonraki",
    "Prev": "Önceki",
    "Total": "Toplam",
    "Dashboard": "Gösterge Paneli",
    "Transactions": "işlemler",
    "KYC List": "KYC Listesi",
    "Users": "Kullanıcılar",
    "Comments": "Yorumlar",
    "FAQ": "SSS",
    "News": "Haberler",
    "Settings": "Ayarlar",
    "Personal Details": "Kişisel detaylar",
    "Your basic personal information is required for identification purposes.": "Temel kişisel bilgileriniz, tanımlama amacıyla gereklidir.",
    "Please type carefully and fill out the form with your personal details. You are not allowed to edit the details once you have submitted the application.": "Lütfen dikkatli bir şekilde yazınız ve formu kişisel bilgilerinizle doldurunuz. Başvuruyu gönderdikten sonra ayrıntıları düzenlemenize izin verilmez.",
    "First Name": "İlk adı",
    "Last Name": "Soyadı",
    "Email Address": "E",
    "Phone Number ": "Telefon numarası",
    "Date of Birth": "Doğum tarihi",
    "Gender": "Cinsiyet",
    "Select Gender": "Cinsiyet seç",
    "Male": "Erkek",
    "Female": "Dişi",
    "Other": "Diğer",
    "Telegram Username": "Telgraf Kullanıcı Adı",
    "Your Address": "Senin adresin",
    "Country": "Ülke",
    "Select Country": "Ülke Seç",
    "State": "Belirtmek, bildirmek",
    "City": "Şehir",
    "Address Line 1": "Adres satırı 1",
    "Address Line 2": "Adres Satırı 2",
    "Document Upload": "Belge Yükleme",
    "To verify your identity, we ask you to upload high-quality scans or photos of your official identification documents issued by the government.": "Kimliğinizi doğrulamak için, devlet tarafından verilen resmi kimlik belgelerinizin yüksek kaliteli taramalarını veya fotoğraflarını yüklemenizi rica ediyoruz.",
    "In order to complete, please upload any of the following personal documents.": "Tamamlamak için lütfen aşağıdaki kişisel belgelerden herhangi birini yükleyin.",
    "To avoid delays with verification process, please double-check to ensure the below requirements are fully met:": "Doğrulama sürecindeki gecikmeleri önlemek için lütfen aşağıdaki gereksinimlerin tam olarak karşılandığından emin olmak için iki kez kontrol edin:",
    "Chosen credential must not be expired.": "Seçilen kimlik bilgisinin süresi dolmamış olmalıdır.",
    "Document should be in good condition and clearly visible.": "Belge iyi durumda ve açıkça görülebilir olmalıdır.",
    "There is no light glare or reflections on the card.": "Kartta ışık parlaması veya yansıması yoktur.",
    "File is at least 1 MB in size and has at least 300 dpi resolution.": "Dosya en az 1 MB boyutunda ve en az 300 dpi çözünürlüğe sahip.",
    "Upload Here Your :doctype Copy": " :doctype Kopyanızı Buraya Yükleyin",
    "Drag and drop file": "Dosyayı sürükleyip bırakın",
    "or": "veya",
    "Select": "Seçme",
    "Upload Here Your National ID Back Side": "Ulusal Kimliğinizi Buraya Yükleyin",
    "Upload a selfie as a Photo Proof while holding document in your hand": "Belgeyi elinizde tutarken Fotoğraf Kanıtı olarak bir selfie yükleyin",
    "Your Paying Wallet": "Ödeme Cüzdanınız",
    "Submit your wallet address that you are going to send funds": "Para göndereceğiniz cüzdan adresinizi gönderin",
    "DO NOT USE your exchange wallet address such as Kraken, Bitfinex, Bithumb, Binance etc.": "Kraken, Bitfinex, Bithumb, Binance vb. döviz cüzdan adresinizi KULLANMAYIN.",
    "Select Wallet": "Cüzdan Seç",
    "Enter your :Name wallet address": " :Name cüzdan adresinizi girin",
    "Enter your wallet address": "Cüzdan adresinizi girin",
    "Your personal wallet address": "Kişisel cüzdan adresiniz",
    "Note:": "Not:",
    "You should read our terms and policy.": "Şartlarımızı ve politikamızı okumalısınız.",
    "I have read the": "okudum",
    "Confirm that all information is correct.": "Tüm bilgilerin doğru olduğunu onaylayın.",
    "All the personal information I have entered is correct.": "Girdiğim tüm kişisel bilgiler doğru.",
    "Certify that you are individual.": "Bireysel olduğunuzu onaylayın.",
    "Confirm that you understand.": "Anladığınızı onaylayın.",
    "Proceed to Verify": "Doğrulamaya Devam Edin",
    "Transaction Details": "ödeme detayları",
    "Approved": "Onaylı",
    "Pending": "Bekliyor",
    "Progress": "İlerlemek",
    "Rejected": "Reddedilmiş",
    "You have successfully paid this transaction": "Bu işlemi başarıyla ödediniz",
    "Sorry! Your order has been :status due to payment.": "Afedersiniz! Ödeme nedeniyle siparişiniz :status oldu.",
    "Token Details": "Jeton Ayrıntıları",
    "Types": "Türler",
    "Token of Stage": "Aşama Simgesi",
    "Token Amount (T)": "Jeton Tutarı (T)",
    "Bonus Token (B)": "Bonus Simgesi (B)",
    "Total Payment": "Toplam ödeme",
    "Refunded Token": "İade Edilen Jeton",
    "Refunded Amount": "İade Edilen Tutar",
    "Token Send To": "Jeton Gönder",
    "Token Receive From": "Jeton Alımı",
    "Notes": "notlar",
    "Details": "Detaylar",
    "Referral Bonus For": "Referans Bonusu",
    "Refund Note": "geri ödeme notu",
    "The transaction is currently under review. We will send you an email once our review is complete.": "İşlem şu anda inceleniyor. İncelememiz tamamlandığında size bir e-posta göndereceğiz.",
    "You have canceled this transaction.": "Bu işlemi iptal ettiniz.",
    "Buy Token": "Jeton satın al",
    "My Token": "Simgem",
    "Valorations": "Değerlemeler",
    "Profile": "Profil",
    "Something is Wrong!": "Bir şey yanlış!",
    "Do you really cancel your order?": "Siparişinizi gerçekten iptal ediyor musunuz?",
    "Unable process request!": "İşlem isteği gerçekleştirilemiyor!",
    "Are you sure?": "Emin misin?",
    "Unable to perform!": "Gerçekleştirilemiyor!",
    "Please use a modern browser to properly view this template!": "Bu şablonu düzgün bir şekilde görüntülemek için lütfen modern bir tarayıcı kullanın!",
    "Whoops!": "Eyvah!",
    "Hello!": "Merhaba!",
    "Overview of": "Genel Bakış",
    "Token Issued": "Jeton Verildi",
    "In based price": "Baz fiyatta",
    "Token Sold": "Jeton Satıldı",
    "Sold Out": "Hepsi satıldı",
    "Unsold": "Satılmamış",
    "Token": "Jeton",
    "In Progress": "Devam etmekte",
    "Waiting for Approve (Purchase only)": "Onay Bekleniyor (Yalnızca Satın Alma)",
    "Sold Details": "Satılan Ayrıntılar",
    "Total Purchased": "Toplam Satın Alınan",
    "Included Bonus": "Dahil edilen Bonus",
    "Based Bonus": "Bazlı Bonus",
    "Amount Bonus": "Tutar Bonusu",
    "Total Referrals": "Toplam Yönlendirmeler",
    "Total Bonuses": "Toplam Bonuslar",
    "Total Collected": "Toplam Toplanan",
    "In Currency": "para biriminde",
    "Oops! Payment Canceled!": "Hata! Ödeme İptal Edildi!",
    "You have canceled your payment. If you continue to have issues, please contact us with order no. :orderid.": "Ödemenizi iptal ettiniz. Sorun yaşamaya devam ederseniz, lütfen sipariş no ile bizimle iletişime geçin. :orderid.",
    "We're reviewing your payment.": "Ödemenizi inceliyoruz.",
    "We'll review your transaction and get back to your within 6 hours. You'll receive an email with the details of your contribution.": "İşleminizi inceleyeceğiz ve 6 saat içinde size geri döneceğiz. Katkınızın ayrıntılarını içeren bir e-posta alacaksınız.",
    "We’re received your payment.": "Ödemenizi aldık.",
    "Thank you for your contribution, we are added the token to your account balance.": "Katkınız için teşekkür ederiz, jetonu hesap bakiyenize ekledik.",
    "DO NOT USE your exchange wallet address OR if you don't have a private key of the your address. You WILL NOT receive your token and WILL LOSE YOUR FUNDS if you do.": "Exchange cüzdan adresinizi VEYA adresinizin özel anahtarına sahip değilseniz KULLANMAYIN. Jetonunuzu ALAMAYACAKSINIZ ve bunu yaparsanız FONLARINIZI KAYBEDECEKSİNİZ.",
    "Wallet Address": "Cüzdan Adresi",
    "In order to receive your :SYMBOL token, please select your wallet address and you have to put the address below input box. You will receive :SYMBOL token to this address after the token sale end.": " :SYMBOL jetonunuzu almak için lütfen cüzdan adresinizi seçin ve adresi aşağıdaki giriş kutusuna yazmanız gerekir. Jeton satışı sona erdikten sonra bu adrese :SYMBOL jeton alacaksınız.",
    "Current Wallet": "Mevcut Cüzdan",
    "Request for change": "Değişim talebi",
    "Wallet Type": "Cüzdan Tipi",
    ":Name Wallet Address for receiving token": "Jeton almak için :Name Cüzdan Adresi",
    "Add Wallet": "Cüzdan Ekle",
    "Enter your new :Name wallet address": "Yeni :Name cüzdan adresinizi girin",
    "Request for Update Wallet": "Cüzdan Güncelleme Talebi",
    "Begin your ID-Verification": "Kimlik Doğrulamanızı başlatın",
    "Verify your identity to participate in token sale.": "Jeton satışına katılmak için kimliğinizi doğrulayın.",
    ":symbol Token Balance": ":symbol Jeton Bakiyesi",
    "My :symbol Token": " :symbol Simgem",
    "+:amount :symbol Pending Request": "+:tutar :symbol Bekleyen İstek",
    "Buy More Token": "Daha Fazla Jeton Satın Alın",
    "Total Token Amount": "Toplam Jeton Tutarı",
    "Purchased Token": "Satın Alınan Jeton",
    "Referral Token": "Yönlendirme Simgesi",
    "Bonuses Token": "Bonus Simgesi",
    "Withdraw Token": "Jeton Çekme",
    "Transfer Token": "Transfer Jetonu",
    "Total Contributed": "Toplam Katkı Sağlanan",
    "Stage Name": "Sahne adı",
    "Bonus": "Bonus",
    "Referral": "Referans",
    "User Account": "Kullanıcı hesabı",
    "Personal Data": "Kişisel veri",
    "User Name": "Kullanıcı adı",
    "Enter User Name": "Kullanıcı adı girin",
    "Full Name": "Ad Soyad",
    "Enter Full Name": "Tam Adı Girin",
    "Enter Email Address": "Email adresini gir",
    "Mobile Number": "Cep numarası",
    "Enter Mobile Number": "Cep Numarasını Girin",
    "Nationality": "Milliyet",
    "Update Profile": "Profili Güncelle",
    "Security Settings": "Güvenlik ayarları",
    "Save my activities log": "Etkinlikler günlüğümü kaydet",
    "Alert me by email in case of unusual activity in my account": "Hesabımda olağandışı bir etkinlik olması durumunda beni e-posta ile uyar",
    "Old Password": "eski Şifre",
    "Confirm New Password": "Yeni şifreyi onayla",
    "Password should be a minimum of 6 digits and include lower and uppercase letter.": "Şifre en az 6 haneli olmalı, küçük ve büyük harf içermelidir.",
    "Your password will only change after your confirmation by email.": "Şifreniz ancak e-posta ile onaylandıktan sonra değişecektir.",
    "Two-factor authentication is a method for protection of your account. When it is activated you are required to enter not only your password, but also a special code. You can receive this code in mobile app. Even if third party gets access to your password, they still won't be able to access your account without the 2FA code.": "İki faktörlü kimlik doğrulama, hesabınızın korunması için bir yöntemdir. Etkinleştirildiğinde, yalnızca şifrenizi değil, aynı zamanda özel bir kodu da girmeniz gerekir. Bu kodu mobil uygulamada alabilirsiniz. Üçüncü taraf şifrenize erişse bile, 2FA kodu olmadan hesabınıza erişemezler.",
    "Current Status:": "Şu anki durum:",
    "Enabled": "Etkinleştirilmiş",
    "Disabled": "Engelli",
    "Enable": "Olanak vermek",
    "Disable": "Devre dışı bırakmak",
    "Step 1:": "Aşama 1:",
    "Install this app from": "Bu uygulamayı şuradan yükleyin:",
    "Google Play": "Google Oyun",
    "store or": "mağaza veya",
    "App Store": "Uygulama mağazası",
    "Step 2:": "Adım 2:",
    "Scan the below QR code by your Google Authenticator app, or you can add account manually.": "Aşağıdaki QR kodunu Google Authenticator uygulamanız ile tarayın veya manuel olarak hesap ekleyebilirsiniz.",
    "Manually add Account:": "Hesabı manuel olarak ekleyin:",
    "Account Name:": "Hesap adı:",
    "Key:": "Anahtar:",
    "Enter Google Authenticator Code": "Google Authenticator Kodunu Girin",
    "Enter the Code to verify": "Doğrulamak için Kodu girin",
    "If you lost your phone or uninstall the Google Authenticator app, then you will lost access of your account.": "Telefonunuzu kaybettiyseniz veya Google Authenticator uygulamasını kaldırdıysanız, hesabınıza erişimi kaybedersiniz.",
    "User Activity": "Kullanıcı Etkinliği",
    "Account Activities Log": "Hesap Hareketleri Günlüğü",
    "Clear All": "Hepsini temizle",
    "Here is your recent activities. You can clear this log as well as disable the feature from profile settings tabs.": "İşte son aktiviteleriniz. Bu günlüğü temizleyebilir ve özelliği profil ayarları sekmelerinden devre dışı bırakabilirsiniz.",
    "Date": "Tarih",
    "Device": "Cihaz",
    "Browser": "Tarayıcı",
    "IP": "IP",
    "Once Delete, You will not get back this log in future!": "Bir kez Sildiğinizde, gelecekte bu günlüğü geri almayacaksınız!",
    "User Dashboard": "Kullanıcı Kontrol Paneli",
    "KYC Verification": "KYC Doğrulaması",
    "You have not submitted your necessary documents to verify your identity.": "Kimliğinizi doğrulamak için gerekli belgeleri göndermediniz.",
    "In order to purchase our tokens, please verify your identity.": "Jetonlarımızı satın almak için lütfen kimliğinizi doğrulayın.",
    "It would great if you please submit the form. If you have any question, please feel free to contact our support team.": "Lütfen formu gönderirseniz çok iyi olur. Herhangi bir sorunuz varsa, lütfen destek ekibimizle iletişime geçmekten çekinmeyin.",
    "You have completed the process of KYC": "KYC sürecini tamamladınız",
    "We are still waiting for your identity verification. Once our team verified your identity, you will be notified by email. You can also check your KYC  compliance status from your profile page.": "Hala kimlik doğrulamanızı bekliyoruz. Ekibimiz kimliğinizi doğruladıktan sonra e-posta ile bilgilendirileceksiniz. KYC uyum durumunuzu profil sayfanızdan da kontrol edebilirsiniz.",
    "Back to Profile": "Profile Geri Dön",
    "Your application verification under process.": "Başvuru doğrulama işleminiz devam ediyor.",
    "We are still working on your identity verification. Once our team verified your identity, you will be notified by email.": "Hâlâ kimlik doğrulamanız üzerinde çalışıyoruz. Ekibimiz kimliğinizi doğruladıktan sonra e-posta ile bilgilendirileceksiniz.",
    "We found some information to be missing.": "Bazı bilgilerin eksik olduğunu gördük.",
    "Sorry! Your application was rejected.": "Afedersiniz! Başvurunuz reddedildi.",
    "In our verification process, we found information that is incorrect or missing. Please resubmit the form. In case of any issues with the submission please contact our support team.": "Doğrulama sürecimizde yanlış veya eksik bilgiler bulduk. Lütfen formu yeniden gönderin. Gönderimle ilgili herhangi bir sorun olması durumunda lütfen destek ekibimizle iletişime geçin.",
    "Submit Again": "Tekrar Gönder",
    "Your identity verified successfully.": "Kimliğiniz başarıyla doğrulandı.",
    "One of our team members verified your identity. Now you can participate in our token sale. Thank you.": "Ekip üyelerimizden biri kimliğinizi doğruladı. Artık token satışımıza katılabilirsiniz. Teşekkür ederim.",
    "Begin ID-Verification": "Kimlik Doğrulamayı Başlat",
    "KYC Details": "KYC Ayrıntıları",
    "Use above link to refer your friend and get referral bonus.": "Arkadaşınızı tavsiye etmek ve tavsiye bonusu almak için yukarıdaki bağlantıyı kullanın.",
    "Referral Lists": "Tavsiye Listeleri",
    "Earn Token": "Jeton kazanın",
    "Register Date": "kayıt Tarihi",
    "~": "~",
    "No one join yet!": "Henüz kimse katılmadı!",
    "Sales Start at": "Satış Başlangıcı",
    "Choose currency and calculate :SYMBOL token price": "Para birimini seçin ve :SYMBOL jeton fiyatını hesaplayın",
    "You can buy our :SYMBOL token using the below currency choices to become part of our project.": "Projemizin bir parçası olmak için aşağıdaki para birimi seçeneklerini kullanarak :SYMBOL jetonumuzu satın alabilirsiniz.",
    "Amount of contribute": "katkı miktarı",
    "Enter the amount you would like to contribute in order to calculate the amount of tokens you will receive. The calculator below helps to convert the required quantity of tokens into the amount of your selected currency.": "Alacağınız jeton miktarını hesaplamak için katkıda bulunmak istediğiniz tutarı girin. Aşağıdaki hesaplayıcı, gerekli jeton miktarını seçtiğiniz para biriminin miktarına dönüştürmenize yardımcı olur.",
    "Minimum contribution amount is required.": "Minimum katkı tutarı gereklidir.",
    "On Sale": "Satılık",
    "Sale Bonus": "Satış Bonusu",
    "Your contribution will be calculated based on exchange rate at the moment when your transaction is confirmed.": "Katkınız, işleminizin onaylandığı andaki döviz kuru üzerinden hesaplanacaktır.",
    "Tokens will appear in your account after payment successfully made and approved by our team. Please note that, :SYMBOL token will be distributed after the token sales end-date.": "Ödeme başarıyla yapıldıktan ve ekibimiz tarafından onaylandıktan sonra jetonlar hesabınızda görünecektir. Lütfen :SYMBOL jetonunun jeton satış bitiş tarihinden sonra dağıtılacağını unutmayın.",
    "Token Sales": "Jeton Satışları",
    "Token Price": "Jeton Fiyatı",
    "Exchange Rate": "Döviz kuru",
    "Current Bonus": "Mevcut Bonus",
    "End at": "Sonunda",
    "Maximum you can purchase :maximum_token token per contribution.": "Katkı başına maksimum :maximum_token jeton satın alabilirsiniz.",
    "Enter minimum :minimum_token token and select currency!": "Minimum :minimum_token jetonunu girin ve para birimini seçin!",
    "User Transactions": "Kullanıcı İşlemleri",
    "Transactions list": "İşlem listesi",
    "Any Type": "Her hangi bir tür",
    "Purchase": "Satın almak",
    "Status": "Durum",
    "Show All": "Hepsini Göster ↓",
    "Canceled": "İptal edildi",
    "Tranx NO": "tranx HAYIR",
    "Tokens": "Jetonlar",
    "Amount": "Miktar",
    "To": "İle",
    "Type": "Tip",
    "Refunded #:orderid": "Geri ödeme yapıldı #:sipariş kimliği",
    "Pay": "Ödemek"
}