{
    "Download Whitepaper": "下载白皮书",
    "Currently we are facing some technical issue, please try again after sometime.": "目前我们遇到了一些技术问题，请稍后再试。",
    "Token Balance": "代币余额",
    "Your Contribution in": "您的贡献",
    "Equivalent to": "相当于",
    "Token Name": "令牌名称",
    "Token Symbol": "代币符号",
    "Buy Token Now": "立即购买代币",
    "Add your wallet address before buy": "购买前添加您的钱包地址",
    "Identity Verification - KYC": "身份验证 - KYC",
    "To comply with regulation, participant will have to go through identity verification.": "为了遵守规定，参与者必须通过身份验证。",
    "You have not submitted your documents to verify your identity (KYC).": "您尚未提交文件以验证您的身份 (KYC)。",
    "Click to Proceed": "点击继续",
    "We have received your document.": "我们已收到您的文件。",
    "We will review your information and if all is in order will approve your identity. You will be notified by email once we verified your identity (KYC).": "我们将审核您的信息，如果一切顺利，我们将批准您的身份。一旦我们验证了您的身份 (KYC)，您将收到电子邮件通知。",
    "KYC Application has been rejected!": "KYC申请被拒绝！",
    "We were having difficulties verifying your identity. In our verification process, we found information are incorrect or missing. Please re-submit the application again and verify your identity.": "我们在验证您的身份时遇到了困难。在我们的验证过程中，我们发现信息不正确或缺失。请重新提交申请并验证您的身份。",
    "Resubmit": "重新提交",
    "View KYC": "查看 KYC",
    "Identity (KYC) has been verified.": "身份（KYC）已经过验证。",
    "One for our team verified your identity. You are eligible to participate in our token sale.": "我们团队的一个验证了您的身份。您有资格参与我们的代币销售。",
    "Purchase Token": "购买令牌",
    "KYC verification required for purchase token": "购买令牌需要 KYC 验证",
    "Your Account Status": "您的帐户状态",
    "Resend Email": "重发电子邮件",
    "Email Verified": "电子邮件已验证",
    "KYC Approved": "KYC 批准",
    "KYC Pending": "KYC 待处理",
    "Submit KYC": "提交KYC",
    "Receiving Wallet": "接收钱包",
    "New address under review for approve.": "新地址正在审核中以供批准。",
    "Add Your Wallet Address": "添加您的钱包地址",
    "Edit": "编辑",
    "Add": "添加",
    "Logout": "登出",
    "Withdraw": "提取",
    "My Profile": "我的简历",
    "Activity": "活动",
    "Contact our support team via email": "通过电子邮件联系我们的支持团队",
    "Token Sales Progress": "代币销售进度",
    "Raised Amount": "募集金额",
    "Total Token": "总代币",
    "Hard Cap": "硬帽",
    "Soft Cap": "软帽",
    "Sales End in": "销售结束于",
    "Sales Start in": "销售开始于",
    "Our token sales has been finished. Thank you very much for your contribution.": "我们的代币销售已经完成。非常感谢您的贡献。",
    "More": "更多的",
    "Earn with Referral": "通过推荐赚取",
    "Invite your friends & family.": "邀请您的朋友和家人。",
    "Dear :fullname, congrats!": "亲爱的 :fullname，恭喜！",
    "Until now, you have earned": "到现在为止，你已经赚了",
    "Dear :fullname, welcome!": "亲爱的 :fullname，欢迎！",
    "You can get more...": "你可以获得更多...",
    "To unlock :level stage invite :number more friends": "解锁 :level 关卡邀请 :number 更多朋友",
    "To unlock other benefits and earn more :currency, share your Referral Link with others:": "要解锁其他福利并赚取更多 :currency，请与他人分享您的推荐链接：",
    "Welcome!": "欢迎！",
    "You provided a invalid 2FA authentication code!": "您提供的 2FA 验证码无效！",
    "Please enter a valid authentication code!": "请输入有效的验证码！",
    "Envato Username is required for activation.": "激活需要 Envato 用户名。",
    "Your Email address is required for activation.": "激活需要您的电子邮件地址。",
    "Please enter a valid email address.": "请输入有效的电子邮件地址。",
    "Envato Purchase Code is required for activation.": "激活需要 Envato 购买代码。",
    "Please enter a valid purchase code.": "请输入有效的购买代码。",
    "Enter valid email.": "输入有效的邮箱。",
    "Unable to proceed request!": "无法继续请求！",
    "Allow only :num digit after decimal point in :label. Recommended to use up-to 6 digit after decimal point.": " :label 中仅允许小数点后 :num 位。建议使用小数点后最多 6 位。",
    "Base Price": "基本价格",
    "Sorry! unable to find translate data for the language.": "对不起！无法找到该语言的翻译数据。",
    "The language name should be unique and indentical.": "语言名称应该是唯一且相同的。",
    "The language code name should be unique.": "语言代码名称应该是唯一的。",
    ":name language added successfully.": ":name 语言添加成功。",
    "Sorry! unable to find the language.": "对不起！找不到语言。",
    "Sorry! unable find the language.": "对不起！找不到语言。",
    "Sorry! unable to update translated text.": "对不起！无法更新翻译文本。",
    "Failed to generate the language file.": "无法生成语言文件。",
    "The language and related translation has been deleted from application.": "语言和相关翻译已从应用程序中删除。",
    "Refund Successful!": "退款成功！",
    "Already Refunded!": "已经退款了！",
    "Unable to cancel the transaction, reload the page.": "无法取消交易，重新加载页面。",
    "Unable to approve the transaction, reload the page.": "无法批准交易，重新加载页面。",
    "Unable to delete the transaction, reload the page.": "无法删除交易，重新加载页面。",
    "Cancel the transaction first.": "先取消交易。",
    "The transaction already updated or cancelled. Please reload the page and check again.": "交易已更新或取消。请重新加载页面并再次检查。",
    "Transaction status updated successfully.": "交易状态更新成功。",
    "Payment has not approved yet for this transaction. You may cancel this transaction.": "此交易的付款尚未批准。您可以取消此交易。",
    "Select a user first!": "先选择用户！",
    "You do not have enough permissions to perform requested operation.": "您没有足够的权限来执行请求的操作。",
    "There has not any unvarified users!": "没有任何未经验证的用户！",
    "Sorry, Something is wrong, please login via your email & password!": "对不起，有问题，请使用您的电子邮件和密码登录！",
    "Sorry, Something is wrong, please login via your email & password!!": "对不起，有问题，请使用您的电子邮件和密码登录！",
    "National ID Card Back-Side": "国民身份证背面",
    "Document on Hand": "手头文件",
    "Invalid document, only JPEG, PNG and PDF files are allowed.": "无效文档，仅允许使用 JPEG、PNG 和 PDF 文件。",
    "Unknown Error": "未知错误",
    "Remove Failed": "删除失败",
    "File Removed": "文件已删除",
    "Maximum amount reached, You can purchase maximum :amount :symbol per transaction.": "已达到最大金额，您每笔交易最多可以购买 :amount :symbol。",
    "You must purchase minimum :amount :symbol.": "您必须至少购买 :amount :symbol。",
    "Our sales has been finished. Thank you very much for your interest.": "我们的销售已经完成。非常感谢您的关注。",
    ":amount :symbol Token is not available.": ":amount :symbol 令牌不可用。",
    "Available :amount :symbol only, You can purchase less than :amount :symbol Token.": "仅可用 :amount :symbol，您可以购买少于 :amount :symbol 令牌。",
    "Sorry, we're unable to proceed the transaction. This transaction may deleted. Please contact with administrator.": "抱歉，我们无法进行交易。此交易可能会被删除。请与管理员联系。",
    "Your transaction is already :status. Sorry, we're unable to proceed the transaction.": "您的交易已经是 :status。抱歉，我们无法进行交易。",
    "Your transaction is already :status. Please check your account balance.": "您的交易已经是 :status。请检查您的帐户余额。",
    "Transaction is not found!!": "找不到交易！！",
    "Transaction id or key is not valid!": "交易 ID 或密钥无效！",
    "You have provide a invalid 2FA authentication code!": "您提供的 2FA 验证码无效！",
    "Passport": "护照",
    "National ID Card": "国家身份证",
    "Driver’s License": "驾驶执照",
    "Address should be ERC20-compliant.": "地址应符合 ERC20。",
    "Reset Password Notification": "重置密码通知",
    "You are receiving this email because we received a password reset request for your account.": "您收到这封电子邮件是因为我们收到了您帐户的密码重置请求。",
    "Reset Password": "重设密码",
    "This password reset link will expire in :count minutes.": "此密码重置链接将在 :count 分钟后过期。",
    "If you did not request a password reset, no further action is required.": "如果您未请求重置密码，则无需进一步操作。",
    "Select your payment method.": "选择您的付款方式。",
    "Sorry, unable to proceed. Your payment amount is very low.": "抱歉，无法继续。您的付款金额非常低。",
    "Confirmation Your Payment": "确认您的付款",
    "Your Order no. :orderid has been placed successfully.": "您的订单号 :orderid 已成功放置。",
    "Please make your payment of :amount :currency through bank to the below bank address. The token balance will appear in your account only after your transaction gets approved by our team.": "请通过银行向以下银行地址支付 :amount :currency。只有在您的交易得到我们团队的批准后，代币余额才会出现在您的账户中。",
    "Bank Details for Payment": "付款银行详细信息",
    "Account Name": "帐户名称",
    "Account Number": "帐号",
    "Account Holder Address": "账户持有人地址",
    "Bank Name": "银行名称",
    "Bank Address": "银行地址",
    "Routing Number": "路由号码",
    "IBAN": "伊班",
    "View Transaction": "查看交易",
    "Cancel Order": "取消订单",
    "Use this transaction id (#:orderid) as reference. Make your payment within 24 hours, If we will not received your payment within 24 hours, then we will cancel the transaction.": "使用此交易 ID (#:orderid) 作为参考。请在 24 小时内付款，如果我们在 24 小时内没有收到您的付款，我们将取消交易。",
    "Your Order no. :orderid has been placed & waiting for payment.": "您的订单号 :orderid 已放置并等待付款。",
    "To receiving :token :symbol token, please make your payment of :amount :currency through bank to the below bank address. The token balance will appear in your account only after your transaction gets approved by our team.": "要接收 :token :symbol 代币，请通过银行将 :amount :currency 支付到以下银行地址。只有在您的交易得到我们团队的批准后，代币余额才会出现在您的账户中。",
    "Oops!!!": "哎呀！！！",
    "Sorry, seems there is an issues occurred and we couldn’t process your request. Please contact us with your order no. :orderid, if you continue to having the issues.": "抱歉，似乎出现了问题，我们无法处理您的请求。请与我们联系并提供您的订单号。 :orderid，如果您继续遇到问题。",
    "Close": "关闭",
    "Please send :amount :currency to the address below. The token balance will appear in your account only after transaction gets :num confirmation and approved by our team.": "请将 :amount :currency 发送到以下地址。只有在交易得到 :num 确认并得到我们团队的批准后，代币余额才会出现在您的帐户中。",
    "Payment to the following :Name Wallet Address": "付款到以下 :Name 钱包地址",
    "Scan QR code to payment.": "扫描二维码付款。",
    "Send Amount:": "发送金额：",
    "SET GAS LIMIT:": "设置气体限制：",
    "SET GAS PRICE:": "设定汽油价格：",
    "Gwei": "桂",
    "To speed up verification process please enter your wallet address from where you'll transferring your amount to our address.": "为了加快验证过程，请输入您的钱包地址，您将从那里将您的金额转移到我们的地址。",
    "Insert your payment address": "输入您的付款地址",
    "Confirm Payment": "确认付款",
    "I'll provide wallet address later": "我稍后会提供钱包地址",
    "Do not make payment through exchange (Kraken, Bitfinex). You can use MyEtherWallet, MetaMask, Mist wallets etc.": "不要通过交易所（Kraken、Bitfinex）进行支付。您可以使用 MyEtherWallet、MetaMask、Mist 钱包等。",
    "In case you send a different amount, number of :SYMBOL token will update accordingly.": "如果您发送不同的金额， :SYMBOL 代币的数量将相应更新。",
    "To receiving :token :symbol token, please send :amount :currency to the address below. The token balance will appear in your account only after transaction gets :num confirmation and approved by our team.": "要接收 :token :symbol 令牌，请将 :amount :currency 发送到以下地址。只有在交易得到 :num 确认并得到我们团队的批准后，代币余额才会出现在您的帐户中。",
    "Scan QR code to Payment.": "扫描二维码付款。",
    "Unable to send email notification.": "无法发送电子邮件通知。",
    "The email has been sent successfully.": "电子邮件已成功发送。",
    "Thank You, We have received your payment!": "谢谢您，我们已收到您的付款！",
    "To receiving :token :symbol token, please make your payment of :amount :currency through :gateway. The token balance will appear in your account once we received your payment.": "要接收 :token :symbol 代币，请通过 :gateway 支付 :amount :currency。一旦我们收到您的付款，令牌余额将出现在您的帐户中。",
    "Make Payment": "付款",
    "Payment Process": "付款流程",
    "Please make payment of :amount to receive :token_amount token including bonus :token_bonus token.": "请支付 :amount 以获得 :token_amount 代币，包括红利 :token_bonus 代币。",
    "Please make payment of :amount to receive :token_amount token.": "请支付 :amount 以获得 :token_amount 代币。",
    "You can choose any of following payment method to make your payment. The token balance will appear in your account after successful payment.": "您可以选择以下任何一种付款方式进行付款。支付成功后，代币余额将出现在您的账户中。",
    "Select payment method:": "选择付款方式：",
    "Payment gateway may charge you a processing fees.": "支付网关可能会向您收取处理费。",
    "You should accept our terms and policy.": "您应该接受我们的条款和政策。",
    "I hereby agree to the token purchase agreement and token sale term.": "我在此同意代币购买协议和代币销售条款。",
    "Our payment address will appear or redirect you for payment after the order is placed.": "下订单后，我们的付款地址将显示或重定向您进行付款。",
    "Sorry! There is no payment method available for this currency. Please choose another currency or contact our support team.": "对不起！此货币没有可用的付款方式。请选择其他货币或联系我们的支持团队。",
    ":lang Translation": ":lang 翻译",
    ":page Translation": ":page 翻译",
    "Instruction for Translation": "翻译说明",
    "Default Text": "默认文本",
    ":lang Text": ":lang 文本",
    "Not yet": "还没有",
    "Language Settings": "语言设定",
    "Update": "更新",
    "Add New Language": "添加新语言",
    "Add Language": "添加语言",
    "Profile Details": "个人资料详情",
    "Two-Factor Verification": "两因素验证",
    "2FA Authentication": "2FA认证",
    "Hello": "你好",
    "Enter the verification code generated by your mobile application (Google Authenticator).": "输入您的移动应用程序（Google Authenticator）生成的验证码。",
    "Required.": "必需的。",
    "Maximum :num chars.": "最多 :num 个字符。",
    "Enter your authentication code": "输入您的验证码",
    "Sign in": "登入",
    "If you lost your phone or Uninstall the Google Authenticator app and enable to access your account please contact with us.": "如果您丢失了手机或卸载 Google Authenticator 应用程序并启用访问您的帐户，请与我们联系。",
    "Sign-in": "登入",
    "with your": "跟你的",
    "Account": "帐户",
    "Your Email": "你的邮件",
    "Password": "密码",
    "At least :num chars.": "至少 :num 个字符。",
    "Remember Me": "记住账号",
    "Forgot password?": "忘记密码？",
    "Sign In": "登入",
    "Or Sign in with": "或登录",
    "Facebook": "Facebook",
    "Google": "谷歌",
    "Don’t have an account?": "没有帐户？",
    "Sign up here": "在此注册",
    "Welcome": "欢迎",
    "Reset password": "重设密码",
    "If you forgot your password, well, then we'll email you instructions to reset your password.": "如果您忘记了密码，那么我们会通过电子邮件向您发送重置密码的说明。",
    "Your Email Address": "您的电子邮件地址",
    "Send Reset Link": "发送重置链接",
    "Return to login": "返回登录",
    "Change Password": "更改密码",
    "New Password": "新密码",
    "Again Password": "再次密码",
    "Sign up": "注册",
    "Create New": "创建新的",
    "Your UserName": "您的用户名",
    "Your Name": "你的名字",
    "Repeat Password": "重复输入密码",
    "Enter the same value.": "输入相同的值。",
    "Your were invited by :userid": "你被 :userid 邀请了",
    "I agree to the": "我同意",
    "and": "和",
    "By registering you agree to the terms and conditions.": "注册即表示您同意条款和条件。",
    "Complete Installation": "完成安装",
    "Create Account": "创建帐号",
    "Or Sign up with": "或注册",
    "Already have an account ?": "已经有一个帐户？",
    "Sign in instead": "改为登录",
    "Reset 2FA Authentication": "重置 2FA 身份验证",
    "Reset 2FA": "重置 2FA",
    "Please enter your account password to reset 2FA authentication.": "请输入您的帐户密码以重置 2FA 身份验证。",
    "Enter Password": "输入密码",
    "Cancel Signup": "取消注册",
    "A fresh verification link has been sent to your email address.": "新的验证链接已发送到您的电子邮件地址。",
    "Please verify your email address.": "请验证您的电子邮件地址。",
    "Before proceeding, please check your email for a verification link.": "在继续之前，请检查您的电子邮件以获取验证链接。",
    "If you did not receive the email, click the button to resend.": "如果您没有收到电子邮件，请单击按钮重新发送。",
    "Sign Out": "登出",
    "Type in to Search": "输入搜索",
    "No records": "没有记录",
    "First": "第一的",
    "Last": "最后的",
    "Next": "下一个",
    "Prev": "上一页",
    "Total": "全部的",
    "Dashboard": "仪表盘",
    "Transactions": "交易",
    "KYC List": "KYC 列表",
    "Users": "用户",
    "Comments": "评论",
    "FAQ": "常问问题",
    "News": "消息",
    "Settings": "设置",
    "Personal Details": "个人资料",
    "Your basic personal information is required for identification purposes.": "出于识别目的需要您的基本个人信息。",
    "Please type carefully and fill out the form with your personal details. You are not allowed to edit the details once you have submitted the application.": "请仔细输入并填写您的个​​人详细信息。提交申请后，您将无法编辑详细信息。",
    "First Name": "名",
    "Last Name": "姓",
    "Email Address": "电子邮件地址",
    "Phone Number ": "电话号码",
    "Date of Birth": "出生日期",
    "Gender": "性别",
    "Select Gender": "选择性别",
    "Male": "男性",
    "Female": "女性",
    "Other": "其他",
    "Telegram Username": "电报用户名",
    "Your Address": "你的地址",
    "Country": "国家",
    "Select Country": "选择国家",
    "State": "状态",
    "City": "城市",
    "Address Line 1": "地址第一行",
    "Address Line 2": "地址行 2",
    "Document Upload": "文件上传",
    "To verify your identity, we ask you to upload high-quality scans or photos of your official identification documents issued by the government.": "为了验证您的身份，我们要求您上传政府签发的官方身份证明文件的高质量扫描件或照片。",
    "In order to complete, please upload any of the following personal documents.": "为了完成，请上传以下任何个人文件。",
    "To avoid delays with verification process, please double-check to ensure the below requirements are fully met:": "为避免验证过程出现延误，请仔细检查以确保完全满足以下要求：",
    "Chosen credential must not be expired.": "所选凭证不得过期。",
    "Document should be in good condition and clearly visible.": "文件应状况良好且清晰可见。",
    "There is no light glare or reflections on the card.": "卡上没有眩光或反射。",
    "File is at least 1 MB in size and has at least 300 dpi resolution.": "文件大小至少为 1 MB，分辨率至少为 300 dpi。",
    "Upload Here Your :doctype Copy": "在此处上传您的 :doctype 副本",
    "Drag and drop file": "拖放文件",
    "or": "或者",
    "Select": "选择",
    "Upload Here Your National ID Back Side": "在此处上传您的国民身份证背面",
    "Upload a selfie as a Photo Proof while holding document in your hand": "手持文件上传自拍照作为照片证明",
    "Your Paying Wallet": "您的支付钱包",
    "Submit your wallet address that you are going to send funds": "提交您将要发送资金的钱包地址",
    "DO NOT USE your exchange wallet address such as Kraken, Bitfinex, Bithumb, Binance etc.": "不要使用您的交易所钱包地址，例如 Kraken、Bitfinex、Bithumb、Binance 等。",
    "Select Wallet": "选择钱包",
    "Enter your :Name wallet address": "输入您的 :Name 钱包地址",
    "Enter your wallet address": "输入你的钱包地址",
    "Your personal wallet address": "您的个人钱包地址",
    "Note:": "笔记：",
    "You should read our terms and policy.": "您应该阅读我们的条款和政策。",
    "I have read the": "我已阅读",
    "Confirm that all information is correct.": "确认所有信息都是正确的。",
    "All the personal information I have entered is correct.": "我输入的所有个人信息都是正确的。",
    "Certify that you are individual.": "证明您是个人。",
    "I certify that, I am registering to participate in the token distribution event(s) in the capacity of an individual (and beneficial owner) and not as an agent or representative of a third party corporate entity.": "我证明，我以个人（和受益所有人）的身份注册参加代币分发活动，而不是作为第三方公司实体的代理人或代表。",
    "Confirm that you understand.": "确认您理解。",
    "I understand that, I can participate in the token distribution event(s) only with the wallet address that was entered in the application form.": "我了解，我只能使用在申请表中输入的钱包地址参与代币分发活动。",
    "Proceed to Verify": "继续验证",
    "Transaction Details": "交易明细",
    "Approved": "得到正式认可的",
    "Pending": "待办的",
    "Progress": "进步",
    "Rejected": "被拒绝",
    "You have successfully paid this transaction": "您已成功支付本次交易",
    "The order no. :orderid was placed on :datetime.": "订单号 :orderid 放在 :datetime 上。",
    "Sorry! Your order has been :status due to payment.": "对不起！由于付款，您的订单已 :status。",
    "Token Details": "代币详情",
    "Types": "类型",
    "Token of Stage": "舞台令牌",
    "Token Amount (T)": "代币数量（T）",
    "Bonus Token (B)": "奖励代币 (B)",
    "Total Payment": "总付款",
    "Refunded Token": "退还的代币",
    "Refunded Amount": "退款金额",
    "Token Send To": "令牌发送至",
    "Token Receive From": "令牌接收自",
    "Notes": "笔记",
    "Details": "细节",
    "Referral Bonus For": "推荐奖金",
    "Refund Note": "退款说明",
    "Transaction has been approved at :time.": "交易已在 :time 获得批准。",
    "The transaction is currently under review. We will send you an email once our review is complete.": "该交易目前正在审查中。审核完成后，我们将向您发送电子邮件。",
    "The transaction was canceled by Administrator at :time.": "管理员在 :time 取消了交易。",
    "You have canceled this transaction.": "您已取消此交易。",
    "The transfer request was canceled at :time.": "转移请求在 :time 被取消。",
    "Buy Token": "购买代币",
    "My Token": "我的令牌",
    "Valorations": "估价",
    "Profile": "轮廓",
    "Something is Wrong!": "出了点问题！",
    "Do you really cancel your order?": "你真的取消订单吗？",
    "Unable process request!": "无法处理请求！",
    "Are you sure?": "你确定吗？",
    "Unable to perform!": "无法执行！",
    "Please use a modern browser to properly view this template!": "请使用现代浏览器正确查看此模板！",
    "Whoops!": "哎呀！",
    "Hello!": "你好！",
    "Overview of": "的概述",
    "Token Issued": "代币发行",
    "In based price": "基于价格",
    "Token Sold": "代币出售",
    "Sold Out": "卖光了",
    "Unsold": "未售出",
    "Token": "令牌",
    "In Progress": "进行中",
    "Waiting for Approve (Purchase only)": "等待批准（仅限购买）",
    "Sold Details": "出售详情",
    "Total Purchased": "购买总额",
    "Included Bonus": "包括奖金",
    "Based Bonus": "基于奖金",
    "Amount Bonus": "金额奖金",
    "Total Referrals": "总推荐人",
    "Total Bonuses": "总奖金",
    "Total Collected": "总收集",
    "In Currency": "货币",
    "Oops! Payment Canceled!": "哎呀！付款取消！",
    "You have canceled your payment. If you continue to have issues, please contact us with order no. :orderid.": "您已取消付款。如果您仍然有问题，请联系我们并提供订单号。 :orderid。",
    "We're reviewing your payment.": "我们正在审核您的付款。",
    "We'll review your transaction and get back to your within 6 hours. You'll receive an email with the details of your contribution.": "我们将审核您的交易并在 6 小时内回复您。您将收到一封电子邮件，其中包含您的贡献的详细信息。",
    "We’re received your payment.": "我们已收到您的付款。",
    "Thank you for your contribution, we are added the token to your account balance.": "感谢您的贡献，我们已将代币添加到您的帐户余额中。",
    "DO NOT USE your exchange wallet address OR if you don't have a private key of the your address. You WILL NOT receive your token and WILL LOSE YOUR FUNDS if you do.": "不要使用您的交换钱包地址，或者如果您没有地址的私钥。如果您收到，您将不会收到您的代币，并且会损失您的资金。",
    "Wallet Address": "钱包地址",
    "In order to receive your :SYMBOL token, please select your wallet address and you have to put the address below input box. You will receive :SYMBOL token to this address after the token sale end.": "为了接收您的 :SYMBOL 代币，请选择您的钱包地址，并且您必须将地址放在输入框下方。代币销售结束后，您将收到 :SYMBOL 代币到该地址。",
    "Current Wallet": "当前钱包",
    "Request for change": "更改请求",
    "Wallet Type": "钱包类型",
    ":Name Wallet Address for receiving token": ":Name 用于接收令牌的钱包地址",
    "Add Wallet": "添加钱包",
    "Enter your new :Name wallet address": "输入您的新 :Name 钱包地址",
    "Request for Update Wallet": "请求更新钱包",
    "Begin your ID-Verification": "开始您的身份验证",
    "Verify your identity to participate in token sale.": "验证您的身份以参与代币销售。",
    ":symbol Token Balance": ":symbol 代币余额",
    "My :symbol Token": "我的 :symbol 令牌",
    "+:amount :symbol Pending Request": "+:金额 :symbol 待处理请求",
    "Buy More Token": "购买更多代币",
    "Total Token Amount": "代币总量",
    "Purchased Token": "购买的代币",
    "Referral Token": "推荐令牌",
    "Bonuses Token": "奖金代币",
    "Withdraw Token": "提币",
    "Transfer Token": "转账代币",
    "Total Contributed": "总贡献",
    "Stage Name": "艺名",
    "Bonus": "奖金",
    "Referral": "推荐",
    "User Account": "用户帐号",
    "Personal Data": "个人资料",
    "User Name": "用户名",
    "Enter User Name": "输入用户名",
    "Full Name": "全名",
    "Enter Full Name": "输入全名",
    "Enter Email Address": "请输入电邮地址",
    "Mobile Number": "手机号码",
    "Enter Mobile Number": "输入手机号码",
    "Nationality": "国籍",
    "Update Profile": "更新个人信息",
    "Security Settings": "安全设定",
    "Save my activities log": "保存我的活动日志",
    "Alert me by email in case of unusual activity in my account": "如果我的帐户出现异常活动，请通过电子邮件提醒我",
    "Old Password": "旧密码",
    "Confirm New Password": "确认新密码",
    "Password should be a minimum of 6 digits and include lower and uppercase letter.": "密码应至少为 6 位数字，包括大小写字母。",
    "Your password will only change after your confirmation by email.": "只有在您通过电子邮件确认后，您的密码才会更改。",
    "Two-factor authentication is a method for protection of your account. When it is activated you are required to enter not only your password, but also a special code. You can receive this code in mobile app. Even if third party gets access to your password, they still won't be able to access your account without the 2FA code.": "双重身份验证是保护您的帐户的一种方法。激活后，您不仅需要输入密码，还需要输入特殊代码。您可以在移动应用程序中收到此代码。即使第三方获得了您的密码，他们仍然无法在没有 2FA 代码的情况下访问您的帐户。",
    "Current Status:": "当前状态：",
    "Enabled": "启用",
    "Disabled": "已禁用",
    "Enable 2FA": "启用 2FA",
    "Disable 2FA": "禁用 2FA",
    "Enable": "使能够",
    "Disable": "禁用",
    "Step 1:": "第1步：",
    "Install this app from": "从安装此应用程序",
    "Google Play": "谷歌播放",
    "store or": "存储或",
    "App Store": "应用商店",
    "Step 2:": "第2步：",
    "Scan the below QR code by your Google Authenticator app, or you can add account manually.": "使用 Google Authenticator 应用扫描下方二维码，也可以手动添加帐号。",
    "Manually add Account:": "手动添加账户：",
    "Account Name:": "帐户名称：",
    "Key:": "钥匙：",
    "Enter Google Authenticator Code": "输入谷歌验证码",
    "Enter the Code to verify": "输入代码来验证",
    "Confirm 2FA": "确认 2FA",
    "If you lost your phone or uninstall the Google Authenticator app, then you will lost access of your account.": "如果您丢失了手机或卸载了 Google Authenticator 应用程序，那么您将无法访问您的帐户。",
    "User Activity": "用户活动",
    "Account Activities Log": "帐户活动日志",
    "Clear All": "全部清除",
    "Here is your recent activities. You can clear this log as well as disable the feature from profile settings tabs.": "这是您最近的活动。您可以清除此日志以及从配置文件设置选项卡禁用该功能。",
    "Date": "日期",
    "Device": "设备",
    "Browser": "浏览器",
    "IP": "知识产权",
    "Once Delete, You will not get back this log in future!": "一旦删除，您以后将无法取回此日志！",
    "User Dashboard": "用户仪表板",
    "KYC Verification": "KYC 验证",
    "You have not submitted your necessary documents to verify your identity.": "您尚未提交必要的文件来验证您的身份。",
    "In order to purchase our tokens, please verify your identity.": "为了购买我们的代币，请验证您的身份。",
    "It would great if you please submit the form. If you have any question, please feel free to contact our support team.": "如果您提交表格，那就太好了。如果您有任何问题，请随时联系我们的支持团队。",
    "Click here to complete your KYC": "单击此处完成您的 KYC",
    "You have completed the process of KYC": "您已完成 KYC 流程",
    "We are still waiting for your identity verification. Once our team verified your identity, you will be notified by email. You can also check your KYC  compliance status from your profile page.": "我们仍在等待您的身份验证。一旦我们的团队验证了您的身份，您将收到电子邮件通知。您还可以从您的个人资料页面检查您的 KYC 合规状态。",
    "Back to Profile": "返回个人资料",
    "Your application verification under process.": "您的申请验证正在处理中。",
    "We are still working on your identity verification. Once our team verified your identity, you will be notified by email.": "我们仍在处理您的身份验证。一旦我们的团队验证了您的身份，您将收到电子邮件通知。",
    "We found some information to be missing.": "我们发现一些信息丢失了。",
    "Sorry! Your application was rejected.": "对不起！您的申请被拒绝。",
    "In our verification process, we found information that is incorrect or missing. Please resubmit the form. In case of any issues with the submission please contact our support team.": "在我们的验证过程中，我们发现了不正确或缺失的信息。请重新提交表格。如果提交有任何问题，请联系我们的支持团队。",
    "Submit Again": "再次提交",
    "Your identity verified successfully.": "您的身份验证成功。",
    "One of our team members verified your identity. Now you can participate in our token sale. Thank you.": "我们的一名团队成员验证了您的身份。现在您可以参与我们的代币销售。谢谢你。",
    "Begin ID-Verification": "开始身份验证",
    "KYC Details": "KYC 详细信息",
    "Referral URL": "推荐网址",
    "Use above link to refer your friend and get referral bonus.": "使用上面的链接推荐您的朋友并获得推荐奖金。",
    "Referral Lists": "推荐名单",
    "Earn Token": "赚取代币",
    "Register Date": "注册日期",
    "~": "~",
    "No one join yet!": "还没有人加入！",
    "Sales Start at": "销售开始于",
    "Choose currency and calculate :SYMBOL token price": "选择币种并计算 :SYMBOL 代币价格",
    "You can buy our :SYMBOL token using the below currency choices to become part of our project.": "您可以使用以下货币选择购买我们的 :SYMBOL 代币，以成为我们项目的一部分。",
    "Amount of contribute": "出资额",
    "Enter the amount you would like to contribute in order to calculate the amount of tokens you will receive. The calculator below helps to convert the required quantity of tokens into the amount of your selected currency.": "输入您想要贡献的金额，以计算您将收到的代币数量。下面的计算器有助于将所需数量的代币转换为您选择的货币数量。",
    "Minimum contribution amount is required.": "最低供款金额是必需的。",
    "On Sale": "在售",
    "Sale Bonus": "销售奖金",
    "Your contribution will be calculated based on exchange rate at the moment when your transaction is confirmed.": "您的供款将根据您交易确认时的汇率计算。",
    "Tokens will appear in your account after payment successfully made and approved by our team. Please note that, :SYMBOL token will be distributed after the token sales end-date.": "付款成功并得到我们团队的批准后，代币将出现在您的帐户中。请注意， :SYMBOL 代币将在代币销售结束日期之后分发。",
    "Token Sales": "代币销售",
    "Token Price": "代币价格",
    "Exchange Rate": "汇率",
    "Current Bonus": "当前奖金",
    "End at": "结束于",
    "Maximum you can purchase :maximum_token token per contribution.": "每次贡献最多可以购买 :maximum_token 个代币。",
    "Enter minimum :minimum_token token and select currency!": "输入最低 :minimum_token 代币并选择货币！",
    "User Transactions": "用户交易",
    "Transactions list": "交易清单",
    "Any Type": "任何类型",
    "Purchase": "购买",
    "Status": "地位",
    "Show All": "显示所有",
    "Canceled": "取消",
    "Tranx NO": "传输无",
    "Tokens": "代币",
    "Amount": "数量",
    "To": "到",
    "Type": "类型",
    "Refunded #:orderid": "已退款#:orderid",
    "Pay": "支付"
}