{
    "name": "Withdraw",
    "alias": "withdraw",
    "description": "Withdraw module for TokenLite, where user allow to withdraw token and admin can manage all the withdraw.",
    "type": "addon",
    "requires": {
		"app": "^1.1.4",
		"laravel": "~5.7"
	},
	"author": "Softnio",
	"package": "TokenLite",
	"version": "1.0.0",
	"update": "20191005"
}