{
	"name": "Stripe",
	"alias": "Stripe",
	"description": "Stripe payment module for TokenLite to accept payment via credit card.",
	"status": true,
    "type": "addons",
	"requires": {
		"app": "^1.3.1",
		"laravel": "~5.7"
	},
	"author": "Softnio",
	"package": "TokenLite",
	"version": "1.0.0",
	"update": "20210901"
}